[gd_scene load_steps=14 format=3 uid="uid://cletujxkh8fkv"]

[ext_resource type="Script" path="res://Scripts/SynthStation.gd" id="1_l3dxa"]
[ext_resource type="PackedScene" uid="uid://bnds78en5qslu" path="res://Content/SynthesisItems/SynthStation.glb" id="2_qty8e"]
[ext_resource type="Material" uid="uid://bhasah6d4nndq" path="res://Content/GlassMat.tres" id="3_dp2pf"]
[ext_resource type="Texture2D" uid="uid://5tw44vexppfw" path="res://Content/Rock Texture/Rock030_1K_Color.jpg" id="4_pg6im"]
[ext_resource type="Texture2D" uid="uid://cfrk8js0oa8mn" path="res://Content/Rock Texture/Rock030_1K_AmbientOcclusion.jpg" id="5_5gkmn"]
[ext_resource type="Texture2D" uid="uid://vvpwxgmutq1g" path="res://Content/Rock Texture/Rock030_1K_Displacement.jpg" id="6_t62bm"]
[ext_resource type="Texture2D" uid="uid://cqrsovty4qhgr" path="res://Content/Rock Texture/Rock030_1K_NormalGL.jpg" id="7_sbt06"]
[ext_resource type="Texture2D" uid="uid://bipckdx7p2tqu" path="res://Content/Rock Texture/Rock030_1K_Roughness.jpg" id="8_3kr3g"]

[sub_resource type="StandardMaterial3D" id="StandardMaterial3D_7mu2c"]
albedo_texture = ExtResource("4_pg6im")
roughness_texture = ExtResource("8_3kr3g")
normal_enabled = true
normal_texture = ExtResource("7_sbt06")
ao_texture = ExtResource("5_5gkmn")
heightmap_enabled = true
heightmap_texture = ExtResource("6_t62bm")
uv1_scale = Vector3(4, 4, 4)

[sub_resource type="ConcavePolygonShape3D" id="ConcavePolygonShape3D_a4o0v"]
data = PackedVector3Array(-1.2594, -0.3795, 0.5019, -1.294, -0.0379, 0.5213, -1.2598, 0.0634, 0.6016, -1.2608, -0.4185, 0.3742, -1.3063, -0.0503, 0.3298, -1.294, -0.0379, 0.5213, -1.2921, -0.1, 0.2586, -1.3063, -0.0503, 0.3298, -1.2608, -0.4185, 0.3742, -1.2814, -0.3304, 0.0513, -1.2883, -0.3473, 0.1875, -1.2446, -0.5026, 0.0926, -1.2806, 0.0062, 0.018, -1.3084, -0.0045, 0.13, -1.2814, -0.3304, 0.0513, -1.171, -0.5551, 0.554, -1.2102, -0.4111, 0.6562, -1.1643, -0.3264, 0.8311, -1.2594, -0.3795, 0.5019, -1.229, -0.2915, 0.5833, -1.2102, -0.4111, 0.6562, -1.2594, -0.3795, 0.5019, -1.2598, 0.0634, 0.6016, -1.229, -0.2915, 0.5833, -1.229, -0.2915, 0.5833, -1.2413, -0.1416, 0.6834, -1.2102, -0.4111, 0.6562, -1.2196, -0.5115, 0.3536, -1.212, -0.522, 0.4995, -1.171, -0.5551, 0.554, -1.171, -0.5551, 0.554, -1.2267, -0.5304, 0.2819, -1.2196, -0.5115, 0.3536, -1.2883, -0.3473, 0.1875, -1.2608, -0.4185, 0.3742, -1.2196, -0.5115, 0.3536, -1.2196, -0.5115, 0.3536, -1.2608, -0.4185, 0.3742, -1.212, -0.522, 0.4995, -1.2031, -0.528, -0.1703, -1.2712, -0.4766, -0.184, -1.2446, -0.5026, 0.0926, -1.144, -0.1757, 0.867, -1.0942, -0.3334, 0.8807, -1.1643, -0.3264, 0.8311, -1.0827, -0.0296, 0.9337, -1.0726, -0.1596, 0.9016, -1.144, -0.1757, 0.867, -1.0725, -0.517, 0.7606, -1.0457, -0.5496, 0.7104, -1.171, -0.5551, 0.554, -1.0899, -0.5479, -0.0492, -1.171, -0.5551, 0.554, -0.996, -0.5549, 0.4252, -1.0899, -0.5479, -0.0492, -1.2267, -0.5304, 0.2819, -1.171, -0.5551, 0.554, -1.025, -0.4134, 0.9061, -1.0276, 0.0367, 1.0075, -0.9715, -0.3228, 0.9793, -1.0942, -0.3334, 0.8807, -1.0725, -0.517, 0.7606, -1.1643, -0.3264, 0.8311, -0.996, -0.5549, 0.4252, -1.171, -0.5551, 0.554, -1.0457, -0.5496, 0.7104, -1.0276, 0.0367, 1.0075, -0.8889, -0.0052, 0.9735, -0.9715, -0.3228, 0.9793, -0.9666, -0.4951, 0.8619, -1.0725, -0.517, 0.7606, -1.025, -0.4134, 0.9061, -1.025, -0.4134, 0.9061, -0.9551, -0.4403, 0.9149, -0.9666, -0.4951, 0.8619, -0.9715, -0.3228, 0.9793, -0.8953, -0.3427, 0.946, -0.9551, -0.4403, 0.9149, -0.7988, -0.541, 0.5952, -0.996, -0.5549, 0.4252, -1.0457, -0.5496, 0.7104, -0.7988, -0.541, 0.5952, -1.0457, -0.5496, 0.7104, -0.7835, -0.5162, 0.7816, -0.9715, -0.3228, 0.9793, -0.8889, -0.0052, 0.9735, -0.8953, -0.3427, 0.946, -0.8208, -0.0043, 0.9764, -0.8953, -0.3427, 0.946, -0.8889, -0.0052, 0.9735, -1.0457, -0.5496, 0.7104, -0.9666, -0.4951, 0.8619, -0.7835, -0.5162, 0.7816, -0.9184, -0.5556, -0.1383, -0.996, -0.5549, 0.4252, -0.7095, -0.5611, 0.1118, -0.8208, -0.0043, 0.9764, -0.7379, 0.0381, 0.9491, -0.7795, -0.2791, 0.9403, -0.8953, -0.3427, 0.946, -0.6817, -0.4402, 0.8914, -0.9551, -0.4403, 0.9149, -0.6125, -0.5151, 0.8096, -0.9666, -0.4951, 0.8619, -0.6817, -0.4402, 0.8914, -0.7379, 0.0381, 0.9491, -0.6499, -0.23, 0.9443, -0.7268, -0.1969, 0.919, -0.7379, 0.0381, 0.9491, -0.6364, 0.0838, 0.9848, -0.6499, -0.23, 0.9443, -0.7835, -0.5162, 0.7816, -0.5569, -0.5468, 0.7325, -0.7988, -0.541, 0.5952, -0.7988, -0.541, 0.5952, -0.5259, -0.5532, 0.6471, -0.7095, -0.5611, 0.1118, -0.5259, -0.5532, 0.6471, -0.7988, -0.541, 0.5952, -0.5569, -0.5468, 0.7325, -0.5139, -0.5592, 0.0997, -0.7095, -0.5611, 0.1118, -0.5259, -0.5532, 0.6471, -0.4389, -0.3252, 0.9378, -0.4355, -0.4302, 0.9039, -0.6817, -0.4402, 0.8914, -0.2176, -0.5072, 0.7511, -0.5259, -0.5532, 0.6471, -0.5569, -0.5468, 0.7325, -0.5569, -0.5468, 0.7325, -0.6125, -0.5151, 0.8096, -0.2176, -0.5072, 0.7511, -0.3771, -0.4029, 0.892, -0.2924, -0.3687, 0.9409, -0.3662, -0.465, 0.8482, -0.2924, -0.3687, 0.9409, -0.1988, -0.3458, 0.9217, -0.1905, -0.4424, 0.8916, -0.0951, 0.1485, 0.9979, -0.1988, -0.3458, 0.9217, -0.2924, -0.3687, 0.9409, -0.1988, -0.3458, 0.9217, -0.1122, -0.3647, 0.9545, -0.0779, -0.4563, 0.901, -0.1305, -0.5614, 0.1243, -0.5139, -0.5592, 0.0997, -0.1046, -0.5536, 0.593, -0.0779, -0.4563, 0.901, -0.1122, -0.3647, 0.9545, 0.0278, -0.3935, 0.963, 0.2382, -0.5619, 0.6325, -0.1305, -0.5614, 0.1243, -0.1046, -0.5536, 0.593, -1.2938, 0.1494, 0.5284, -1.2598, 0.0634, 0.6016, -1.294, -0.0379, 0.5213, -1.2938, 0.1494, 0.5284, -1.279, 0.3096, 0.5059, -1.2338, 0.3922, 0.565, -1.2598, 0.0634, 0.6016, -1.2338, 0.3922, 0.565, -1.2393, 0.3538, 0.6411, -1.2897, 0.2147, 0.2847, -1.2938, 0.1494, 0.5284, -1.294, -0.0379, 0.5213, -1.2897, 0.2147, 0.2847, -1.279, 0.3096, 0.5059, -1.2938, 0.1494, 0.5284, -1.2726, 0.2504, 0.2071, -1.2897, 0.2147, 0.2847, -1.3063, -0.0503, 0.3298, -1.2806, 0.0062, 0.018, -1.2884, 0.2742, 0.1168, -1.3084, -0.0045, 0.13, -1.2631, 0.2751, -0.0179, -1.2884, 0.2742, 0.1168, -1.2806, 0.0062, 0.018, -1.1932, 0.2283, 0.8377, -1.2071, -0.147, 0.7932, -1.2612, 0.118, 0.6858, -1.2612, 0.118, 0.6858, -1.2393, 0.3538, 0.6411, -1.1837, 0.3673, 0.8129, -1.2393, 0.3538, 0.6411, -1.2034, 0.454, 0.6051, -1.1837, 0.3673, 0.8129, -1.2338, 0.3922, 0.565, -1.2034, 0.454, 0.6051, -1.2393, 0.3538, 0.6411, -1.2338, 0.3922, 0.565, -1.2402, 0.4293, 0.4445, -1.2034, 0.454, 0.6051, -1.2402, 0.4293, 0.4445, -1.1512, 0.4973, 0.599, -1.2034, 0.454, 0.6051, -1.2402, 0.4293, 0.4445, -1.1795, 0.457, 0.3058, -1.1512, 0.4973, 0.599, -1.279, 0.3096, 0.5059, -1.2367, 0.3883, 0.2956, -1.2402, 0.4293, 0.4445, -1.2402, 0.4293, 0.4445, -1.2367, 0.3883, 0.2956, -1.1795, 0.457, 0.3058, -1.2884, 0.2742, 0.1168, -1.2501, 0.3877, 0.0996, -1.2367, 0.3883, 0.2956, -1.2631, 0.2751, -0.0179, -1.2501, 0.3877, 0.0996, -1.2884, 0.2742, 0.1168, -1.2048, 0.3997, -0.0805, -1.1795, 0.457, 0.3058, -1.2501, 0.3877, 0.0996, -1.1932, 0.2283, 0.8377, -1.1837, 0.3673, 0.8129, -1.139, 0.2417, 0.9036, -1.1837, 0.3673, 0.8129, -1.0353, 0.384, 0.9113, -1.139, 0.2417, 0.9036, -1.139, 0.2417, 0.9036, -1.0353, 0.384, 0.9113, -1.0661, 0.2445, 0.9146, -1.1512, 0.4973, 0.599, -1.0976, 0.4725, 0.8169, -1.2034, 0.454, 0.6051, -1.0932, 0.5119, 0.4655, -1.1512, 0.4973, 0.599, -1.1795, 0.457, 0.3058, -1.0661, 0.2445, 0.9146, -1.0264, 0.2401, 0.9865, -1.0276, 0.0367, 1.0075, -1.0353, 0.384, 0.9113, -0.9908, 0.5075, 0.8175, -0.9393, 0.3955, 0.9168, -1.0976, 0.4725, 0.8169, -0.9258, 0.5487, 0.7388, -0.9908, 0.5075, 0.8175, -1.1795, 0.457, 0.3058, -0.9273, 0.5501, 0.4146, -1.0932, 0.5119, 0.4655, -0.8798, 0.3006, 0.9694, -0.8889, -0.0052, 0.9735, -1.0276, 0.0367, 1.0075, -1.0353, 0.384, 0.9113, -0.9393, 0.3955, 0.9168, -0.8798, 0.3006, 0.9694, -1.0932, 0.5119, 0.4655, -0.9273, 0.5501, 0.4146, -0.958, 0.5549, 0.5423, -0.9258, 0.5487, 0.7388, -0.8005, 0.4053, 0.8753, -0.9908, 0.5075, 0.8175, -0.9273, 0.5501, 0.4146, -0.7499, 0.5509, 0.5314, -0.958, 0.5549, 0.5423, -0.9935, 0.536, 0.2717, -0.7301, 0.6227, 0.0809, -0.9273, 0.5501, 0.4146, -0.7998, 0.5882, 0.0133, -0.7301, 0.6227, 0.0809, -0.9935, 0.536, 0.2717, -0.7832, 0.2234, 0.9391, -0.8005, 0.4053, 0.8753, -0.7247, 0.2797, 0.9469, -0.6851, 0.4215, 0.8442, -0.6779, 0.3011, 0.9387, -0.7247, 0.2797, 0.9469, -0.7499, 0.5509, 0.5314, -0.6863, 0.5274, 0.6899, -0.9258, 0.5487, 0.7388, -0.6779, 0.3011, 0.9387, -0.6364, 0.0838, 0.9848, -0.7379, 0.0381, 0.9491, -0.7499, 0.5509, 0.5314, -0.6289, 0.578, 0.4458, -0.6863, 0.5274, 0.6899, -0.9273, 0.5501, 0.4146, -0.7301, 0.6227, 0.0809, -0.6114, 0.6246, 0.3133, -0.6779, 0.3011, 0.9387, -0.4446, 0.2884, 0.9623, -0.6364, 0.0838, 0.9848, -0.6289, 0.578, 0.4458, -0.5157, 0.5482, 0.6261, -0.6863, 0.5274, 0.6899, -0.55, 0.5891, -0.1684, -0.4616, 0.6124, 0.2016, -0.7301, 0.6227, 0.0809, -0.6364, 0.0838, 0.9848, -0.4446, 0.2884, 0.9623, -0.4387, 0.0142, 0.9635, -0.492, 0.5019, 0.7365, -0.4336, 0.4284, 0.8736, -0.6851, 0.4215, 0.8442, -0.6114, 0.6246, 0.3133, -0.4382, 0.5858, 0.4716, -0.5157, 0.5482, 0.6261, -0.4534, 0.3735, 0.9368, -0.3854, 0.3515, 0.9317, -0.4446, 0.2884, 0.9623, -0.4336, 0.4284, 0.8736, -0.3854, 0.3515, 0.9317, -0.4534, 0.3735, 0.9368, -0.492, 0.5019, 0.7365, -0.3372, 0.507, 0.7723, -0.4336, 0.4284, 0.8736, -0.492, 0.5019, 0.7365, -0.5157, 0.5482, 0.6261, -0.3372, 0.507, 0.7723, -0.55, 0.5891, -0.1684, -0.3144, 0.5753, 0.0271, -0.4616, 0.6124, 0.2016, -0.3372, 0.507, 0.7723, -0.315, 0.3913, 0.962, -0.4336, 0.4284, 0.8736, -0.4212, 0.6011, 0.3303, -0.1691, 0.5686, 0.318, -0.1659, 0.5385, 0.5746, -0.3144, 0.5753, 0.0271, -0.1691, 0.5686, 0.318, -0.4212, 0.6011, 0.3303, -0.1129, 0.3212, 0.9857, -0.3123, 0.1389, 0.9832, -0.315, 0.3913, 0.962, -0.2899, 0.5454, 0.5701, 0.0155, 0.5315, 0.7283, -0.3372, 0.507, 0.7723, -0.1129, 0.3212, 0.9857, -0.0951, 0.1485, 0.9979, -0.3123, 0.1389, 0.9832, -0.2899, 0.5454, 0.5701, -0.1659, 0.5385, 0.5746, 0.0155, 0.5315, 0.7283, -0.1659, 0.5385, 0.5746, -0.1691, 0.5686, 0.318, 0.1147, 0.5742, 0.4728, -0.1475, 0.5648, 0.0861, 0.0762, 0.5978, 0.2962, -0.1691, 0.5686, 0.318, -1.2712, -0.4766, -0.184, -1.3082, -0.2074, -0.2371, -1.2814, -0.3304, 0.0513, -1.3062, -0.0543, -0.0649, -1.2806, 0.0062, 0.018, -1.2814, -0.3304, 0.0513, -1.3082, -0.2074, -0.2371, -1.313, 0.0222, -0.2224, -1.3062, -0.0543, -0.0649, -1.3047, -0.2326, -0.4616, -1.2957, -0.3712, -0.3342, -1.2837, -0.3908, -0.4511, -1.2712, -0.4766, -0.184, -1.2837, -0.3908, -0.4511, -1.2957, -0.3712, -0.3342, -1.2989, 0.0376, -0.3688, -1.313, 0.0222, -0.2224, -1.2957, -0.3712, -0.3342, -1.2851, -0.2189, -0.5414, -1.2837, -0.3908, -0.4511, -1.2257, -0.441, -0.6024, -1.3047, -0.2326, -0.4616, -1.292, 0.0335, -0.5301, -1.2989, 0.0376, -0.3688, -1.2217, -0.5036, -0.4568, -1.2712, -0.4766, -0.184, -1.2031, -0.528, -0.1703, -1.1662, -0.4239, -0.7552, -1.2032, -0.2386, -0.7456, -1.2257, -0.441, -0.6024, -1.1802, -0.1316, -0.7898, -1.1717, 0.0812, -0.7873, -1.214, -0.033, -0.7001, -1.1529, -0.5034, -0.6605, -1.2217, -0.5036, -0.4568, -1.0749, -0.5497, -0.6191, -1.0493, -0.4957, -0.7824, -1.1529, -0.5034, -0.6605, -1.0749, -0.5497, -0.6191, -1.133, -0.2087, -0.8613, -1.0872, 0.0664, -0.9514, -1.1714, 0.0215, -0.8721, -0.9898, -0.4382, -0.818, -1.0493, -0.4957, -0.7824, -0.8948, -0.5192, -0.7551, -1.0399, -0.3685, -0.8578, -1.133, -0.2087, -0.8613, -1.0991, -0.3941, -0.8268, -1.0399, -0.3685, -0.8578, -1.0991, -0.3941, -0.8268, -1.0493, -0.4957, -0.7824, -0.9188, 0.028, -0.9628, -1.0399, -0.3685, -0.8578, -0.9688, -0.2626, -0.8608, -0.9188, 0.028, -0.9628, -1.0026, 0.0707, -0.9932, -1.0399, -0.3685, -0.8578, -0.8349, -0.2413, -0.9345, -0.8966, -0.2792, -0.9348, -0.8754, -0.4184, -0.862, -0.8349, -0.2413, -0.9345, -0.8754, -0.4184, -0.862, -0.7793, -0.4263, -0.9002, -0.8702, -0.0105, -0.9881, -0.9188, 0.028, -0.9628, -0.8966, -0.2792, -0.9348, -0.696, -0.5517, -0.3071, -0.9184, -0.5556, -0.1383, -0.7095, -0.5611, 0.1118, -0.571, -0.5514, -0.4909, -0.84, -0.5441, -0.6495, -0.696, -0.5517, -0.3071, -0.7793, -0.4263, -0.9002, -0.8948, -0.5192, -0.7551, -0.7498, -0.5126, -0.8104, -0.7498, -0.5126, -0.8104, -0.6036, -0.5193, -0.9436, -0.7793, -0.4263, -0.9002, -0.751, -0.2897, -0.9738, -0.8349, -0.2413, -0.9345, -0.7793, -0.4263, -0.9002, -0.751, -0.2897, -0.9738, -0.8096, -0.0334, -0.9576, -0.8349, -0.2413, -0.9345, -0.7179, -0.0914, -1.0135, -0.8096, -0.0334, -0.9576, -0.751, -0.2897, -0.9738, -0.6633, -0.541, -0.7137, -0.84, -0.5441, -0.6495, -0.571, -0.5514, -0.4909, -0.58, 0.0237, -1.0087, -0.7223, 0.0876, -0.9871, -0.7179, -0.0914, -1.0135, -0.571, -0.5514, -0.4909, -0.696, -0.5517, -0.3071, -0.5139, -0.5592, 0.0997, -0.5103, -0.5486, -0.8814, -0.6036, -0.5193, -0.9436, -0.7498, -0.5126, -0.8104, -0.5986, -0.4429, -1.004, -0.6036, -0.5193, -0.9436, -0.4479, -0.5135, -0.9667, -0.4751, -0.1946, -0.9618, -0.58, 0.0237, -1.0087, -0.5568, -0.2494, -1.0302, -0.571, -0.5514, -0.4909, -0.5139, -0.5592, 0.0997, -0.3805, -0.5544, -0.1827, -0.5103, -0.5486, -0.8814, -0.6633, -0.541, -0.7137, -0.571, -0.5514, -0.4909, -0.4479, -0.5135, -0.9667, -0.6036, -0.5193, -0.9436, -0.5103, -0.5486, -0.8814, -0.4551, -0.4339, -0.9968, -0.5986, -0.4429, -1.004, -0.4479, -0.5135, -0.9667, -0.5568, -0.2494, -1.0302, -0.4551, -0.4339, -0.9968, -0.4634, -0.3096, -0.9973, -0.5005, -0.0566, -0.9564, -0.58, 0.0237, -1.0087, -0.4751, -0.1946, -0.9618, -0.4999, 0.0649, -0.9728, -0.5005, -0.0566, -0.9564, -0.4403, 0.0363, -0.9993, -0.2742, -0.5393, -0.6314, -0.571, -0.5514, -0.4909, -0.2805, -0.5436, -0.4736, -0.4479, -0.5135, -0.9667, -0.5103, -0.5486, -0.8814, -0.2355, -0.4876, -0.9158, -0.2386, -0.4025, -0.9691, -0.4551, -0.4339, -0.9968, -0.4479, -0.5135, -0.9667, -0.4403, 0.0363, -0.9993, -0.4751, -0.1946, -0.9618, -0.3893, -0.2147, -1.0074, -0.4403, 0.0363, -0.9993, -0.3893, -0.2147, -1.0074, -0.2757, -0.0349, -1.0058, -0.1981, -0.5289, -0.7479, -0.5103, -0.5486, -0.8814, -0.2742, -0.5393, -0.6314, -0.3893, -0.2147, -1.0074, -0.4551, -0.4339, -0.9968, -0.2386, -0.4025, -0.9691, -0.2757, -0.0349, -1.0058, -0.3893, -0.2147, -1.0074, -0.2386, -0.4025, -0.9691, -0.2805, -0.5436, -0.4736, -0.3805, -0.5544, -0.1827, -0.0191, -0.5443, -0.3291, -0.2324, -0.5436, -0.5465, -0.2805, -0.5436, -0.4736, -0.0191, -0.5443, -0.3291, -0.1432, -0.4882, -0.8989, -0.1981, -0.5289, -0.7479, 0.1893, -0.5396, -0.8765, -0.0857, -0.415, -0.9664, -0.2386, -0.4025, -0.9691, -0.1432, -0.4882, -0.8989, -0.1928, -0.1055, -0.997, -0.2386, -0.4025, -0.9691, -0.0857, -0.415, -0.9664, -0.1471, -0.0382, -1.0224, -0.1928, -0.1055, -0.997, -0.0857, -0.415, -0.9664, -0.1981, -0.5289, -0.7479, -0.2742, -0.5393, -0.6314, 0.1365, -0.5518, -0.5898, -0.0346, -0.2058, -1.0196, -0.1471, -0.0382, -1.0224, -0.0857, -0.415, -0.9664, -1.2989, 0.0376, -0.3688, -1.2757, 0.2883, -0.3271, -1.2709, 0.2657, -0.2035, -1.2989, 0.0376, -0.3688, -1.292, 0.0335, -0.5301, -1.2678, 0.2823, -0.4324, -1.234, 0.3721, -0.2993, -1.1115, 0.4659, -0.0421, -1.2048, 0.3997, -0.0805, -1.2332, 0.2646, -0.5346, -1.2678, 0.2823, -0.4324, -1.292, 0.0335, -0.5301, -1.2332, 0.2646, -0.5346, -1.1913, 0.3897, -0.5093, -1.2678, 0.2823, -0.4324, -1.2347, -0.075, -0.5853, -1.1996, 0.1741, -0.5837, -1.2332, 0.2646, -0.5346, -1.1851, 0.1904, -0.6816, -1.2332, 0.2646, -0.5346, -1.1996, 0.1741, -0.5837, -1.1471, 0.4287, -0.6589, -1.1913, 0.3897, -0.5093, -1.2332, 0.2646, -0.5346, -1.1717, 0.0812, -0.7873, -1.1851, 0.1904, -0.6816, -1.214, -0.033, -0.7001, -1.0797, 0.5281, -0.5408, -1.0087, 0.5871, -0.3607, -1.1115, 0.4659, -0.0421, -1.1913, 0.3897, -0.5093, -1.0797, 0.5281, -0.5408, -1.234, 0.3721, -0.2993, -1.0895, 0.1961, -0.9582, -1.1714, 0.0215, -0.8721, -1.0872, 0.0664, -0.9514, -1.0355, 0.5583, -0.684, -1.0087, 0.5871, -0.3607, -1.0797, 0.5281, -0.5408, -1.0355, 0.5583, -0.684, -0.9547, 0.5983, -0.4975, -1.0087, 0.5871, -0.3607, -1.0238, 0.4922, -0.8727, -1.0355, 0.5583, -0.684, -1.0904, 0.4901, -0.8027, -1.0238, 0.4922, -0.8727, -0.9135, 0.555, -0.6973, -1.0355, 0.5583, -0.684, -1.0442, 0.4118, -0.8771, -1.1246, 0.3479, -0.7868, -0.991, 0.365, -0.9657, -1.1246, 0.3479, -0.7868, -1.0895, 0.1961, -0.9582, -0.991, 0.365, -0.9657, -1.0238, 0.4922, -0.8727, -1.0904, 0.4901, -0.8027, -1.0442, 0.4118, -0.8771, -1.0026, 0.0707, -0.9932, -1.0895, 0.1961, -0.9582, -1.0872, 0.0664, -0.9514, -0.9135, 0.555, -0.6973, -0.9547, 0.5983, -0.4975, -1.0355, 0.5583, -0.684, -0.7905, 0.5755, -0.1535, -0.7998, 0.5882, 0.0133, -0.9707, 0.5484, -0.0308, -0.8922, 0.5773, -0.2643, -0.7905, 0.5755, -0.1535, -0.9707, 0.5484, -0.0308, -0.8816, 0.5737, -0.5658, -0.7371, 0.5513, -0.5248, -0.9113, 0.5904, -0.3405, -0.8098, 0.4483, -0.8921, -0.8383, 0.3405, -0.96, -0.7425, 0.3872, -0.9055, -0.8098, 0.4483, -0.8921, -0.9135, 0.555, -0.6973, -0.9128, 0.4069, -0.9296, -0.8098, 0.4483, -0.8921, -0.9128, 0.4069, -0.9296, -0.8383, 0.3405, -0.96, -0.8702, -0.0105, -0.9881, -0.8853, 0.221, -0.9534, -0.9188, 0.028, -0.9628, -0.8853, 0.221, -0.9534, -0.8702, -0.0105, -0.9881, -0.8383, 0.3405, -0.96, -0.8098, 0.4483, -0.8921, -0.7425, 0.3872, -0.9055, -0.7326, 0.4998, -0.7557, -0.793, 0.1296, -0.9478, -0.8383, 0.3405, -0.96, -0.8702, -0.0105, -0.9881, -0.7916, 0.225, -0.9257, -0.793, 0.1296, -0.9478, -0.7223, 0.0876, -0.9871, -0.7425, 0.3872, -0.9055, -0.8383, 0.3405, -0.96, -0.7916, 0.225, -0.9257, -0.5673, 0.5714, -0.4136, -0.7998, 0.5882, 0.0133, -0.7905, 0.5755, -0.1535, -0.7326, 0.4998, -0.7557, -0.6969, 0.44, -0.8749, -0.5796, 0.4488, -0.8726, -0.7425, 0.3872, -0.9055, -0.6969, 0.44, -0.8749, -0.7326, 0.4998, -0.7557, -0.7223, 0.0876, -0.9871, -0.8096, -0.0334, -0.9576, -0.7179, -0.0914, -1.0135, -0.7326, 0.4998, -0.7557, -0.5265, 0.5534, -0.5305, -0.5673, 0.5714, -0.4136, -0.6968, 0.3558, -0.9357, -0.5937, 0.3268, -0.9469, -0.5796, 0.4488, -0.8726, -0.4291, 0.4987, -0.7565, -0.5265, 0.5534, -0.5305, -0.5191, 0.4582, -0.8434, -0.5105, 0.3803, -0.9113, -0.5796, 0.4488, -0.8726, -0.5937, 0.3268, -0.9469, -0.4999, 0.0649, -0.9728, -0.58, 0.0237, -1.0087, -0.5005, -0.0566, -0.9564, -0.5937, 0.3268, -0.9469, -0.58, 0.0237, -1.0087, -0.4999, 0.0649, -0.9728, -0.5105, 0.3803, -0.9113, -0.4999, 0.0649, -0.9728, -0.4465, 0.2039, -0.9836, -0.4465, 0.2039, -0.9836, -0.4999, 0.0649, -0.9728, -0.4403, 0.0363, -0.9993, -0.3452, 0.4538, -0.8758, -0.5105, 0.3803, -0.9113, -0.4465, 0.2039, -0.9836, -0.3759, 0.5796, -0.2895, -0.2559, 0.569, -0.5042, -0.161, 0.5781, -0.3889, -0.2832, 0.4791, -0.8147, -0.1934, 0.5076, -0.7854, -0.4291, 0.4987, -0.7565, -0.3125, 0.2497, -0.9846, -0.2757, -0.0349, -1.0058, -0.2641, 0.3349, -0.9374, -0.1475, 0.5648, 0.0861, -0.1691, 0.5686, 0.318, -0.3144, 0.5753, 0.0271, -0.3759, 0.5796, -0.2895, -0.1475, 0.5648, 0.0861, -0.3144, 0.5753, 0.0271, -0.161, 0.5781, -0.3889, -0.1475, 0.5648, 0.0861, -0.3759, 0.5796, -0.2895, -0.1934, 0.5076, -0.7854, -0.2559, 0.569, -0.5042, -0.5265, 0.5534, -0.5305, -0.2641, 0.3349, -0.9374, -0.2219, 0.3837, -0.931, -0.2832, 0.4791, -0.8147, -0.2559, 0.569, -0.5042, -0.1669, 0.5579, -0.5129, -0.161, 0.5781, -0.3889, 0.0381, 0.3871, -0.9311, 0.0202, 0.5317, -0.7463, -0.1934, 0.5076, -0.7854, -0.1952, 0.2215, -1.0004, -0.1928, -0.1055, -0.997, -0.1471, -0.0382, -1.0224, 0.0593, 0.0974, -1.0168, -0.1952, 0.2215, -1.0004, -0.1471, -0.0382, -1.0224, -0.161, 0.5781, -0.3889, 0.0114, 0.5774, -0.0828, -0.1475, 0.5648, 0.0861, -0.1669, 0.5579, -0.5129, 0.0706, 0.5685, -0.5416, -0.161, 0.5781, -0.3889, 0.0381, 0.3871, -0.9311, -0.2219, 0.3837, -0.931, -0.1952, 0.2215, -1.0004, 0.1652, -0.3782, 0.9615, -0.0779, -0.4563, 0.901, 0.0278, -0.3935, 0.963, 0.231, -0.5586, 0.2499, -0.1305, -0.5614, 0.1243, 0.2382, -0.5619, 0.6325, 0.1652, -0.3782, 0.9615, 0.1869, -0.0122, 0.9594, 0.2339, -0.3631, 0.9379, 0.2339, -0.3631, 0.9379, 0.2388, -0.4445, 0.8897, 0.1652, -0.3782, 0.9615, 0.2382, -0.5619, 0.6325, -0.0779, -0.4563, 0.901, 0.2388, -0.4445, 0.8897, 0.4212, -0.1201, 0.9423, 0.5079, -0.4287, 0.8918, 0.2899, -0.3728, 0.9492, 0.5452, -0.5068, 0.7766, 0.2382, -0.5619, 0.6325, 0.2388, -0.4445, 0.8897, 0.6373, -0.5598, 0.1609, 0.2382, -0.5619, 0.6325, 0.692, -0.5518, 0.4437, 0.4831, 0.2033, 0.9529, 0.5428, -0.1142, 0.9307, 0.4782, -0.1573, 0.9122, 0.5452, -0.5068, 0.7766, 0.2388, -0.4445, 0.8897, 0.5079, -0.4287, 0.8918, 0.4212, -0.1201, 0.9423, 0.4782, -0.1573, 0.9122, 0.5079, -0.4287, 0.8918, 0.7033, -0.4969, 0.8325, 0.5452, -0.5068, 0.7766, 0.5931, -0.4256, 0.924, 0.4782, -0.1573, 0.9122, 0.6073, -0.2522, 0.9582, 0.5931, -0.4256, 0.924, 0.5871, -0.5609, -0.1226, 0.6373, -0.5598, 0.1609, 0.7046, -0.5413, -0.2897, 0.7033, -0.4969, 0.8325, 0.5931, -0.4256, 0.924, 0.7075, -0.4483, 0.8965, 0.5931, -0.4256, 0.924, 0.6798, -0.2309, 0.9582, 0.7075, -0.4483, 0.8965, 0.6798, -0.2309, 0.9582, 0.7712, -0.3948, 0.9463, 0.7075, -0.4483, 0.8965, 0.7761, -0.2222, 0.9537, 0.8369, -0.253, 0.9784, 0.7712, -0.3948, 0.9463, 0.9543, -0.5567, 0.2235, 0.6373, -0.5598, 0.1609, 0.692, -0.5518, 0.4437, 1.0301, -0.3173, 0.9959, 0.7712, -0.3948, 0.9463, 0.8369, -0.253, 0.9784, 1.0301, -0.3173, 0.9959, 1.0974, -0.3222, 0.9562, 1.1701, -0.5152, 0.826, 0.9834, 0.2861, 0.9996, 1.0635, 0.1638, 0.942, 1.0301, -0.3173, 0.9959, 1.0301, -0.3173, 0.9959, 1.0635, 0.1638, 0.942, 1.0974, -0.3222, 0.9562, 1.0699, -0.5443, 0.8451, 0.8728, -0.5301, 0.8364, 1.0386, -0.4835, 0.9203, 1.1917, -0.5583, 0.5619, 0.9543, -0.5567, 0.2235, 0.9987, -0.5605, 0.7774, 1.0635, 0.1638, 0.942, 1.1435, 0.0732, 0.9863, 1.0974, -0.3222, 0.9562, 1.0386, -0.4835, 0.9203, 1.1701, -0.5152, 0.826, 1.0699, -0.5443, 0.8451, 1.1917, -0.5583, 0.5619, 0.9987, -0.5605, 0.7774, 1.183, -0.5503, 0.7415, 1.183, -0.5503, 0.7415, 1.0699, -0.5443, 0.8451, 1.1701, -0.5152, 0.826, 1.2125, -0.0424, 0.9371, 1.2613, -0.0757, 0.8803, 1.161, -0.2121, 0.9826, 1.241, -0.4949, 0.768, 1.183, -0.5503, 0.7415, 1.1701, -0.5152, 0.826, 1.1917, -0.5583, 0.5619, 1.183, -0.5503, 0.7415, 1.2521, -0.5072, 0.6249, 1.2521, -0.5072, 0.6249, 1.1582, -0.528, 0.1715, 1.1917, -0.5583, 0.5619, 1.2068, -0.489, 0.2522, 1.1582, -0.528, 0.1715, 1.2521, -0.5072, 0.6249, 1.282, -0.255, 0.0417, 1.2158, -0.4922, -0.0797, 1.2198, -0.4782, 0.1231, 1.2814, -0.2418, 0.817, 1.2966, -0.2843, 0.7252, 1.241, -0.4949, 0.768, 1.2998, -0.0391, 0.7, 1.2966, -0.2843, 0.7252, 1.2814, -0.2418, 0.817, 1.3262, 0.0785, 0.596, 1.3146, -0.2988, 0.5742, 1.2966, -0.2843, 0.7252, 1.2846, -0.2585, 0.2829, 1.2068, -0.489, 0.2522, 1.3067, -0.2753, 0.361, 1.3067, -0.2753, 0.361, 1.3179, -0.2128, 0.4359, 1.3242, -0.0495, 0.3538, 1.3022, 0.0145, 0.2839, 1.2846, -0.2585, 0.2829, 1.3242, -0.0495, 0.3538, 1.3204, 0.1647, 0.3497, 1.3242, -0.0495, 0.3538, 1.3179, -0.2128, 0.4359, 1.3166, -0.1976, 0.1361, 1.2198, -0.4782, 0.1231, 1.3037, -0.2541, 0.2059, 1.3022, 0.0145, 0.2839, 1.3037, -0.2541, 0.2059, 1.2846, -0.2585, 0.2829, -0.0063, 0.2442, 0.9791, 0.1377, 0.233, 1.0052, 0.019, 0.1697, 0.9992, 0.0155, 0.5315, 0.7283, 0.1507, 0.5292, 0.7371, -0.0086, 0.426, 0.9746, -0.0086, 0.426, 0.9746, 0.1507, 0.5292, 0.7371, 0.1379, 0.407, 0.9748, -0.1475, 0.5648, 0.0861, 0.0114, 0.5774, -0.0828, 0.0762, 0.5978, 0.2962, 0.019, 0.1697, 0.9992, 0.1377, 0.233, 1.0052, 0.0844, -0.1717, 0.9671, 0.0155, 0.5315, 0.7283, 0.3213, 0.5349, 0.6201, 0.1507, 0.5292, 0.7371, 0.0155, 0.5315, 0.7283, 0.1147, 0.5742, 0.4728, 0.3213, 0.5349, 0.6201, 0.1377, 0.233, 1.0052, 0.2287, 0.3608, 0.9555, 0.1869, -0.0122, 0.9594, 0.2287, 0.3608, 0.9555, 0.2988, 0.2156, 0.9912, 0.1869, -0.0122, 0.9594, 0.1507, 0.5292, 0.7371, 0.2989, 0.469, 0.7387, 0.1379, 0.407, 0.9748, 0.1379, 0.407, 0.9748, 0.2989, 0.469, 0.7387, 0.2287, 0.3608, 0.9555, 0.1507, 0.5292, 0.7371, 0.3213, 0.5349, 0.6201, 0.2989, 0.469, 0.7387, 0.1147, 0.5742, 0.4728, 0.2944, 0.5737, 0.3499, 0.3213, 0.5349, 0.6201, 0.0762, 0.5978, 0.2962, 0.298, 0.5861, 0.2544, 0.2944, 0.5737, 0.3499, 0.3838, 0.5075, 0.6517, 0.4111, 0.3097, 0.9506, 0.2989, 0.469, 0.7387, 0.3213, 0.5349, 0.6201, 0.3838, 0.5075, 0.6517, 0.2989, 0.469, 0.7387, 0.3191, 0.5697, -0.0874, 0.298, 0.5861, 0.2544, 0.1503, 0.5879, 0.0358, 0.2988, 0.2156, 0.9912, 0.4111, 0.3097, 0.9506, 0.4027, 0.1562, 0.9788, 0.4027, 0.1562, 0.9788, 0.4111, 0.3097, 0.9506, 0.4831, 0.2033, 0.9529, 0.3838, 0.5075, 0.6517, 0.4701, 0.3299, 0.9219, 0.4111, 0.3097, 0.9506, 0.4938, 0.6009, 0.2403, 0.535, 0.5842, 0.4486, 0.2944, 0.5737, 0.3499, 0.3191, 0.5697, -0.0874, 0.5422, 0.609, 0.1324, 0.298, 0.5861, 0.2544, 0.4027, 0.1562, 0.9788, 0.4831, 0.2033, 0.9529, 0.4782, -0.1573, 0.9122, 0.4701, 0.3299, 0.9219, 0.4831, 0.2033, 0.9529, 0.4111, 0.3097, 0.9506, 0.4701, 0.3299, 0.9219, 0.7252, 0.365, 0.9412, 0.6669, 0.1889, 0.9734, 0.6747, 0.5376, 0.6545, 0.6829, 0.4866, 0.7541, 0.4701, 0.3299, 0.9219, 0.3838, 0.5075, 0.6517, 0.6747, 0.5376, 0.6545, 0.4701, 0.3299, 0.9219, 0.6614, 0.5831, 0.4155, 0.6747, 0.5376, 0.6545, 0.535, 0.5842, 0.4486, 0.6747, 0.5376, 0.6545, 0.6614, 0.5831, 0.4155, 0.7746, 0.5534, 0.5069, 0.6614, 0.5831, 0.4155, 0.6743, 0.5809, 0.3199, 0.7746, 0.5534, 0.5069, 0.745, 0.5452, -0.1908, 0.7776, 0.5567, 0.0328, 0.5422, 0.609, 0.1324, 0.7776, 0.5567, 0.0328, 0.6743, 0.5809, 0.3199, 0.5422, 0.609, 0.1324, 0.7252, 0.365, 0.9412, 0.8057, 0.23, 0.9881, 0.8369, -0.253, 0.9784, 0.832, 0.3535, 0.9697, 0.8057, 0.23, 0.9881, 0.7252, 0.365, 0.9412, 0.7252, 0.365, 0.9412, 0.9063, 0.4174, 0.9052, 0.832, 0.3535, 0.9697, 0.7746, 0.5534, 0.5069, 0.8856, 0.5506, 0.7341, 0.6747, 0.5376, 0.6545, 0.6743, 0.5809, 0.3199, 0.91, 0.5615, 0.2569, 0.7746, 0.5534, 0.5069, 0.7776, 0.5567, 0.0328, 0.91, 0.5615, 0.2569, 0.6743, 0.5809, 0.3199, 0.8057, 0.23, 0.9881, 0.9834, 0.2861, 0.9996, 0.8369, -0.253, 0.9784, 0.832, 0.3535, 0.9697, 0.9668, 0.3826, 0.9784, 0.8057, 0.23, 0.9881, 0.9834, 0.2861, 0.9996, 1.0301, -0.3173, 0.9959, 0.8369, -0.253, 0.9784, 0.9668, 0.3826, 0.9784, 0.9834, 0.2861, 0.9996, 0.8057, 0.23, 0.9881, 0.9834, 0.2861, 0.9996, 0.9668, 0.3826, 0.9784, 1.0636, 0.343, 0.9667, 1.0574, 0.5548, 0.4089, 1.2162, 0.5622, 0.625, 0.8856, 0.5506, 0.7341, 1.0574, 0.5548, 0.4089, 0.8856, 0.5506, 0.7341, 0.91, 0.5615, 0.2569, 0.9325, 0.5271, 0.0344, 1.0203, 0.5266, -0.0512, 0.91, 0.5615, 0.2569, 1.0636, 0.343, 0.9667, 1.0635, 0.1638, 0.942, 0.9834, 0.2861, 0.9996, 0.9063, 0.4174, 0.9052, 1.0286, 0.5252, 0.7966, 1.1134, 0.4826, 0.8526, 1.0203, 0.5266, -0.0512, 1.1577, 0.4931, 0.0942, 1.0574, 0.5548, 0.4089, 1.0203, 0.5266, -0.0512, 1.0574, 0.5548, 0.4089, 0.91, 0.5615, 0.2569, 1.1893, 0.3352, 0.9684, 1.1435, 0.0732, 0.9863, 1.1175, 0.345, 0.9924, 1.0636, 0.343, 0.9667, 1.1134, 0.4826, 0.8526, 1.1175, 0.345, 0.9924, 1.1175, 0.345, 0.9924, 1.1134, 0.4826, 0.8526, 1.2043, 0.4055, 0.9072, 1.0286, 0.5252, 0.7966, 1.2162, 0.5622, 0.625, 1.1134, 0.4826, 0.8526, 1.1577, 0.4931, 0.0942, 1.235, 0.5287, 0.3737, 1.0574, 0.5548, 0.4089, 1.1893, 0.3352, 0.9684, 1.2125, -0.0424, 0.9371, 1.1435, 0.0732, 0.9863, 1.2532, 0.159, 0.8881, 1.2613, -0.0757, 0.8803, 1.2125, -0.0424, 0.9371, 1.2636, 0.5049, 0.6813, 1.2899, 0.4195, 0.7735, 1.2043, 0.4055, 0.9072, 1.2636, 0.5049, 0.6813, 1.2043, 0.4055, 0.9072, 1.1134, 0.4826, 0.8526, 1.2877, 0.4764, 0.6217, 1.2636, 0.5049, 0.6813, 1.2162, 0.5622, 0.625, 1.1815, 0.4711, -0.0837, 1.257, 0.4491, 0.2207, 1.1577, 0.4931, 0.0942, 1.2694, 0.372, -0.0313, 1.257, 0.4491, 0.2207, 1.1815, 0.4711, -0.0837, 1.3011, 0.0583, 0.7668, 1.2973, -0.0285, 0.8078, 1.2532, 0.159, 0.8881, 1.3011, 0.0583, 0.7668, 1.2532, 0.159, 0.8881, 1.3085, 0.3278, 0.7665, 1.1893, 0.3352, 0.9684, 1.3085, 0.3278, 0.7665, 1.2532, 0.159, 0.8881, 1.3085, 0.3278, 0.7665, 1.1893, 0.3352, 0.9684, 1.2899, 0.4195, 0.7735, 1.3019, 0.3046, 0.6586, 1.2998, -0.0391, 0.7, 1.3011, 0.0583, 0.7668, 1.3019, 0.3046, 0.6586, 1.3262, 0.0785, 0.596, 1.2998, -0.0391, 0.7, 1.3204, 0.1647, 0.3497, 1.3179, -0.2128, 0.4359, 1.3262, 0.0785, 0.596, 1.3022, 0.0145, 0.2839, 1.3242, -0.0495, 0.3538, 1.3204, 0.1647, 0.3497, 1.2792, 0.3532, 0.2783, 1.3204, 0.1647, 0.3497, 1.2848, 0.426, 0.368, 1.229, 0.4956, 0.2876, 1.2848, 0.426, 0.368, 1.235, 0.5287, 0.3737, 1.257, 0.4491, 0.2207, 1.2694, 0.372, -0.0313, 1.2792, 0.3532, 0.2783, 1.3166, -0.1976, 0.1361, 1.2972, 0.3004, 0.1981, 1.2945, 0.2057, -0.0042, 1.2945, 0.2057, -0.0042, 1.282, -0.255, 0.0417, 1.3166, -0.1976, 0.1361, -0.0191, -0.5443, -0.3291, -0.1305, -0.5614, 0.1243, 0.0411, -0.5589, -0.2148, -0.0191, -0.5443, -0.3291, 0.0411, -0.5589, -0.2148, 0.1365, -0.5518, -0.5898, -0.0346, -0.2058, -1.0196, -0.0857, -0.415, -0.9664, 0.1173, -0.1337, -1.065, 0.1173, -0.1337, -1.065, -0.0857, -0.415, -0.9664, 0.0925, -0.5016, -0.9522, 0.0283, 0.0217, -1.0254, -0.0346, -0.2058, -1.0196, 0.1173, -0.1337, -1.065, 0.3533, -0.5507, -0.1668, 0.1365, -0.5518, -0.5898, 0.0411, -0.5589, -0.2148, 0.1424, -0.2269, -1.0429, 0.1173, -0.1337, -1.065, 0.0925, -0.5016, -0.9522, 0.1546, -0.0109, -1.0307, 0.1173, -0.1337, -1.065, 0.1424, -0.2269, -1.0429, 0.2101, -0.1335, -1.0636, 0.1424, -0.2269, -1.0429, 0.0925, -0.5016, -0.9522, 0.1546, -0.0109, -1.0307, 0.1424, -0.2269, -1.0429, 0.2101, -0.1335, -1.0636, 0.2789, -0.5249, -0.936, 0.1893, -0.5396, -0.8765, 0.4095, -0.5501, -0.8059, 0.208, 0.0077, -1.0675, 0.2101, -0.1335, -1.0636, 0.2575, -0.195, -1.0603, 0.3672, -0.55, -0.461, 0.3533, -0.5507, -0.1668, 0.5871, -0.5609, -0.1226, 0.4008, -0.5078, -0.9517, 0.2789, -0.5249, -0.936, 0.4095, -0.5501, -0.8059, 0.4173, -0.0719, -1.0145, 0.3294, -0.3107, -1.0154, 0.5146, -0.455, -0.9662, 0.2575, -0.195, -1.0603, 0.3294, -0.3107, -1.0154, 0.4173, -0.0719, -1.0145, 0.5126, -0.5087, -0.9561, 0.4008, -0.5078, -0.9517, 0.4095, -0.5501, -0.8059, 0.488, -0.1633, -0.9688, 0.4173, -0.0719, -1.0145, 0.5146, -0.455, -0.9662, 0.4929, 0.2745, -0.9796, 0.4173, -0.0719, -1.0145, 0.488, -0.1633, -0.9688, 0.4929, 0.2745, -0.9796, 0.488, -0.1633, -0.9688, 0.5322, -0.173, -1.0144, 0.3672, -0.55, -0.461, 0.5871, -0.5609, -0.1226, 0.7046, -0.5413, -0.2897, 1.0153, -0.5445, -0.8403, 0.3672, -0.55, -0.461, 0.8775, -0.5601, -0.4588, 0.5322, -0.173, -1.0144, 0.5146, -0.455, -0.9662, 0.6358, -0.2188, -1.0468, 0.6642, -0.3872, -0.9992, 0.5146, -0.455, -0.9662, 0.5126, -0.5087, -0.9561, 0.6642, -0.3872, -0.9992, 0.5126, -0.5087, -0.9561, 0.8498, -0.4947, -0.9557, 0.7273, -0.2042, -1.0359, 0.6358, -0.2188, -1.0468, 0.6642, -0.3872, -0.9992, 0.8498, -0.4947, -0.9557, 0.5126, -0.5087, -0.9561, 1.0153, -0.5445, -0.8403, 0.8884, -0.2151, -0.9887, 0.7273, -0.2042, -1.0359, 0.8498, -0.4947, -0.9557, 0.8418, -0.1527, -1.0228, 0.8884, -0.2151, -0.9887, 0.8814, -0.0293, -0.9732, 1.0153, -0.5445, -0.8403, 0.8775, -0.5601, -0.4588, 1.0929, -0.5415, 0.0224, 0.9384, -0.4202, -0.9837, 0.8498, -0.4947, -0.9557, 1.0343, -0.4954, -0.9537, 1.0575, -0.4215, -0.9881, 0.9825, 0.0036, -0.9999, 0.9384, -0.4202, -0.9837, 1.0343, -0.4954, -0.9537, 1.0153, -0.5445, -0.8403, 1.0948, -0.4922, -0.9018, 1.0575, -0.4215, -0.9881, 0.9384, -0.4202, -0.9837, 1.0343, -0.4954, -0.9537, 1.1871, -0.5048, -0.4215, 1.145, -0.5239, -0.6055, 1.1582, -0.528, 0.1715, 1.1352, 0.0055, -0.9499, 1.0575, -0.4215, -0.9881, 1.1424, -0.3519, -0.9179, 1.1871, -0.5048, -0.4215, 1.2158, -0.4922, -0.0797, 1.305, -0.3258, -0.2931, 1.2787, -0.3061, -0.594, 1.0948, -0.4922, -0.9018, 1.145, -0.5239, -0.6055, 1.145, -0.5239, -0.6055, 1.1871, -0.5048, -0.4215, 1.2787, -0.3061, -0.594, 1.1673, -0.3784, -0.8421, 1.0948, -0.4922, -0.9018, 1.2787, -0.3061, -0.594, 1.2255, -0.1458, -0.8166, 1.1673, -0.3784, -0.8421, 1.23, -0.3126, -0.7325, 1.2255, -0.1458, -0.8166, 1.2506, 0.1241, -0.7553, 1.193, -0.0585, -0.83, 1.1691, 0.1347, -0.858, 1.1659, -0.1765, -0.8703, 1.193, -0.0585, -0.83, 1.1659, -0.1765, -0.8703, 1.2255, -0.1458, -0.8166, 1.193, -0.0585, -0.83, 1.3109, 0.2266, -0.1268, 1.3255, -0.2178, -0.2836, 1.3149, -0.1764, -0.0503, 1.3255, -0.2178, -0.2836, 1.2949, -0.3036, -0.0613, 1.3149, -0.1764, -0.0503, 1.3255, -0.2178, -0.2836, 1.2948, -0.3265, -0.3826, 1.305, -0.3258, -0.2931, 1.3256, -0.2336, -0.4422, 1.2948, -0.3265, -0.3826, 1.3062, -0.192, -0.3678, 1.2948, -0.3265, -0.3826, 1.2787, -0.3061, -0.594, 1.1871, -0.5048, -0.4215, -0.161, 0.5781, -0.3889, 0.0765, 0.582, -0.4299, 0.0114, 0.5774, -0.0828, 0.0202, 0.5317, -0.7463, 0.0706, 0.5685, -0.5416, -0.1669, 0.5579, -0.5129, 0.0381, 0.3871, -0.9311, 0.0964, 0.3788, -0.909, 0.0202, 0.5317, -0.7463, 0.0202, 0.5317, -0.7463, 0.0964, 0.3788, -0.909, 0.1949, 0.4657, -0.891, 0.0381, 0.3871, -0.9311, -0.1952, 0.2215, -1.0004, 0.0593, 0.0974, -1.0168, 0.1949, 0.4657, -0.891, 0.0964, 0.3788, -0.909, 0.1932, 0.2677, -0.9967, 0.0593, 0.0974, -1.0168, 0.1173, -0.1337, -1.065, 0.1546, -0.0109, -1.0307, 0.0381, 0.3871, -0.9311, 0.0593, 0.0974, -1.0168, 0.1546, -0.0109, -1.0307, 0.1546, -0.0109, -1.0307, 0.0964, 0.3788, -0.909, 0.0381, 0.3871, -0.9311, 0.0964, 0.3788, -0.909, 0.1546, -0.0109, -1.0307, 0.1932, 0.2677, -0.9967, 0.1949, 0.4657, -0.891, 0.2243, 0.5523, -0.7552, 0.0202, 0.5317, -0.7463, 0.2934, 0.3053, -0.9785, 0.1932, 0.2677, -0.9967, 0.208, 0.0077, -1.0675, 0.2243, 0.5523, -0.7552, 0.1949, 0.4657, -0.891, 0.4664, 0.5046, -0.8242, 0.2934, 0.3053, -0.9785, 0.4673, 0.4313, -0.9131, 0.1949, 0.4657, -0.891, 0.4664, 0.5046, -0.8242, 0.5553, 0.5493, -0.5515, 0.2243, 0.5523, -0.7552, 0.4673, 0.4313, -0.9131, 0.2934, 0.3053, -0.9785, 0.4432, 0.3374, -0.9723, 0.4673, 0.4313, -0.9131, 0.4432, 0.3374, -0.9723, 0.4929, 0.2745, -0.9796, 0.1949, 0.4657, -0.891, 0.4673, 0.4313, -0.9131, 0.4664, 0.5046, -0.8242, 0.3378, -0.0305, -1.0293, 0.4173, -0.0719, -1.0145, 0.3922, 0.1666, -1.0099, 0.2934, 0.3053, -0.9785, 0.3378, -0.0305, -1.0293, 0.3922, 0.1666, -1.0099, 0.4432, 0.3374, -0.9723, 0.2934, 0.3053, -0.9785, 0.3922, 0.1666, -1.0099, 0.4664, 0.5046, -0.8242, 0.79, 0.5296, -0.6689, 0.5553, 0.5493, -0.5515, 0.4432, 0.3374, -0.9723, 0.3922, 0.1666, -1.0099, 0.4929, 0.2745, -0.9796, 0.547, 0.0405, -1.0406, 0.5353, 0.3228, -0.9864, 0.4929, 0.2745, -0.9796, 0.4673, 0.4313, -0.9131, 0.4929, 0.2745, -0.9796, 0.5353, 0.3228, -0.9864, 0.5553, 0.5493, -0.5515, 0.745, 0.5452, -0.1908, 0.4582, 0.5608, -0.185, 0.7174, 0.4875, -0.8252, 0.79, 0.5296, -0.6689, 0.4664, 0.5046, -0.8242, 0.5703, 0.4216, -0.9321, 0.7174, 0.4875, -0.8252, 0.4664, 0.5046, -0.8242, 0.6822, 0.0326, -1.0422, 0.5353, 0.3228, -0.9864, 0.547, 0.0405, -1.0406, 0.9076, 0.5397, -0.4631, 0.6905, 0.5441, -0.4535, 0.5553, 0.5493, -0.5515, 0.6822, 0.0326, -1.0422, 0.547, 0.0405, -1.0406, 0.6747, -0.1106, -1.0779, 0.6905, 0.5441, -0.4535, 0.9076, 0.5397, -0.4631, 0.8546, 0.5438, -0.1712, 0.7357, 0.4278, -0.9046, 0.652, 0.3514, -0.964, 0.8891, 0.3489, -0.9565, 0.8484, 0.2561, -0.9414, 0.6822, 0.0326, -1.0422, 0.8418, -0.1527, -1.0228, 0.8484, 0.2561, -0.9414, 0.652, 0.3514, -0.964, 0.6822, 0.0326, -1.0422, 0.7357, 0.4278, -0.9046, 1.0914, 0.507, -0.8002, 1.0096, 0.5185, -0.7164, 0.8814, -0.0293, -0.9732, 0.8484, 0.2561, -0.9414, 0.8418, -0.1527, -1.0228, 0.9635, 0.3515, -0.9908, 1.0445, 0.4325, -0.9294, 0.8873, 0.4459, -0.9006, 0.8891, 0.3489, -0.9565, 0.8814, -0.0293, -0.9732, 0.9825, 0.0036, -0.9999, 0.9635, 0.3515, -0.9908, 0.8873, 0.4459, -0.9006, 0.8891, 0.3489, -0.9565, 0.8546, 0.5438, -0.1712, 1.1251, 0.5212, -0.6131, 1.0203, 0.5266, -0.0512, 1.1391, 0.3561, -0.9139, 1.1343, 0.4344, -0.8753, 1.0445, 0.4325, -0.9294, 1.0445, 0.4325, -0.9294, 1.1343, 0.4344, -0.8753, 1.0914, 0.507, -0.8002, 0.9635, 0.3515, -0.9908, 0.9825, 0.0036, -0.9999, 1.053, 0.3058, -0.9859, 1.0445, 0.4325, -0.9294, 0.9635, 0.3515, -0.9908, 1.053, 0.3058, -0.9859, 1.0445, 0.4325, -0.9294, 1.053, 0.3058, -0.9859, 1.1391, 0.3561, -0.9139, 1.0203, 0.5266, -0.0512, 1.1815, 0.4711, -0.0837, 1.1577, 0.4931, 0.0942, 1.1391, 0.3561, -0.9139, 1.053, 0.3058, -0.9859, 1.1352, 0.0055, -0.9499, 1.1391, 0.3561, -0.9139, 1.1352, 0.0055, -0.9499, 1.1691, 0.1347, -0.858, 1.1391, 0.3561, -0.9139, 1.1718, 0.2925, -0.8481, 1.1343, 0.4344, -0.8753, 1.1835, 0.494, -0.5081, 1.2432, 0.4333, -0.4086, 1.1815, 0.4711, -0.0837, 1.1815, 0.4711, -0.0837, 1.2432, 0.4333, -0.4086, 1.2694, 0.372, -0.0313, 1.1859, 0.443, -0.7635, 1.2432, 0.4333, -0.4086, 1.1835, 0.494, -0.5081, 1.2102, 0.3578, -0.7839, 1.2131, 0.1788, -0.826, 1.2506, 0.1241, -0.7553, 1.2102, 0.3578, -0.7839, 1.2959, 0.2551, -0.4509, 1.2791, 0.3581, -0.4085, 1.1691, 0.1347, -0.858, 1.193, -0.0585, -0.83, 1.2131, 0.1788, -0.826, 1.1859, 0.443, -0.7635, 1.1343, 0.4344, -0.8753, 1.1718, 0.2925, -0.8481, 1.1718, 0.2925, -0.8481, 1.2131, 0.1788, -0.826, 1.2102, 0.3578, -0.7839, 1.1859, 0.443, -0.7635, 1.1718, 0.2925, -0.8481, 1.2102, 0.3578, -0.7839, 1.2694, 0.372, -0.0313, 1.3109, 0.2266, -0.1268, 1.2945, 0.2057, -0.0042, 1.2694, 0.372, -0.0313, 1.303, 0.2778, -0.2773, 1.3109, 0.2266, -0.1268, 1.2814, 0.3157, -0.3308, 1.3062, -0.192, -0.3678, 1.303, 0.2778, -0.2773, 1.2814, 0.3157, -0.3308, 1.3256, -0.2336, -0.4422, 1.3062, -0.192, -0.3678, 1.2959, 0.2551, -0.4509, 1.3256, -0.2336, -0.4422, 1.2814, 0.3157, -0.3308, 1.2432, 0.4333, -0.4086, 1.2791, 0.3581, -0.4085, 1.2814, 0.3157, -0.3308, 1.2791, 0.3581, -0.4085, 1.2959, 0.2551, -0.4509, 1.2814, 0.3157, -0.3308, -1.2608, -0.4185, 0.3742, -1.294, -0.0379, 0.5213, -1.2594, -0.3795, 0.5019, -1.2921, -0.1, 0.2586, -1.2608, -0.4185, 0.3742, -1.2883, -0.3473, 0.1875, -1.3084, -0.0045, 0.13, -1.2921, -0.1, 0.2586, -1.2883, -0.3473, 0.1875, -1.3084, -0.0045, 0.13, -1.2883, -0.3473, 0.1875, -1.2814, -0.3304, 0.0513, -1.144, -0.1757, 0.867, -1.1643, -0.3264, 0.8311, -1.2071, -0.147, 0.7932, -1.2413, -0.1416, 0.6834, -1.2071, -0.147, 0.7932, -1.2102, -0.4111, 0.6562, -1.2071, -0.147, 0.7932, -1.1643, -0.3264, 0.8311, -1.2102, -0.4111, 0.6562, -1.2612, 0.118, 0.6858, -1.2071, -0.147, 0.7932, -1.2413, -0.1416, 0.6834, -1.171, -0.5551, 0.554, -1.212, -0.522, 0.4995, -1.2102, -0.4111, 0.6562, -1.229, -0.2915, 0.5833, -1.2598, 0.0634, 0.6016, -1.2413, -0.1416, 0.6834, -1.2594, -0.3795, 0.5019, -1.2102, -0.4111, 0.6562, -1.212, -0.522, 0.4995, -1.2608, -0.4185, 0.3742, -1.2594, -0.3795, 0.5019, -1.212, -0.522, 0.4995, -1.2883, -0.3473, 0.1875, -1.2196, -0.5115, 0.3536, -1.2267, -0.5304, 0.2819, -1.2446, -0.5026, 0.0926, -1.2883, -0.3473, 0.1875, -1.2267, -0.5304, 0.2819, -1.2446, -0.5026, 0.0926, -1.2267, -0.5304, 0.2819, -1.2031, -0.528, -0.1703, -1.2031, -0.528, -0.1703, -1.2267, -0.5304, 0.2819, -1.0899, -0.5479, -0.0492, -1.144, -0.1757, 0.867, -1.0726, -0.1596, 0.9016, -1.0942, -0.3334, 0.8807, -1.1461, 0.0536, 0.9012, -1.144, -0.1757, 0.867, -1.2071, -0.147, 0.7932, -1.0827, -0.0296, 0.9337, -1.144, -0.1757, 0.867, -1.1461, 0.0536, 0.9012, -1.171, -0.5551, 0.554, -1.1643, -0.3264, 0.8311, -1.0725, -0.517, 0.7606, -1.0276, 0.0367, 1.0075, -1.025, -0.4134, 0.9061, -1.0726, -0.1596, 0.9016, -1.0827, -0.0296, 0.9337, -1.0276, 0.0367, 1.0075, -1.0726, -0.1596, 0.9016, -1.0725, -0.517, 0.7606, -1.0942, -0.3334, 0.8807, -1.025, -0.4134, 0.9061, -1.025, -0.4134, 0.9061, -1.0942, -0.3334, 0.8807, -1.0726, -0.1596, 0.9016, -0.9184, -0.5556, -0.1383, -1.0899, -0.5479, -0.0492, -0.996, -0.5549, 0.4252, -0.9715, -0.3228, 0.9793, -0.9551, -0.4403, 0.9149, -1.025, -0.4134, 0.9061, -1.0725, -0.517, 0.7606, -0.9666, -0.4951, 0.8619, -1.0457, -0.5496, 0.7104, -0.996, -0.5549, 0.4252, -0.7988, -0.541, 0.5952, -0.7095, -0.5611, 0.1118, -0.8208, -0.0043, 0.9764, -0.7795, -0.2791, 0.9403, -0.8953, -0.3427, 0.946, -0.7379, 0.0381, 0.9491, -0.7268, -0.1969, 0.919, -0.7795, -0.2791, 0.9403, -0.9666, -0.4951, 0.8619, -0.9551, -0.4403, 0.9149, -0.6817, -0.4402, 0.8914, -0.6125, -0.5151, 0.8096, -0.7835, -0.5162, 0.7816, -0.9666, -0.4951, 0.8619, -0.7795, -0.2791, 0.9403, -0.6817, -0.4402, 0.8914, -0.8953, -0.3427, 0.946, -0.7795, -0.2791, 0.9403, -0.7268, -0.1969, 0.919, -0.6817, -0.4402, 0.8914, -0.6499, -0.23, 0.9443, -0.6817, -0.4402, 0.8914, -0.7268, -0.1969, 0.919, -0.6364, 0.0838, 0.9848, -0.4387, 0.0142, 0.9635, -0.6499, -0.23, 0.9443, -0.4387, 0.0142, 0.9635, -0.4389, -0.3252, 0.9378, -0.6499, -0.23, 0.9443, -0.4355, -0.4302, 0.9039, -0.6125, -0.5151, 0.8096, -0.6817, -0.4402, 0.8914, -0.7835, -0.5162, 0.7816, -0.6125, -0.5151, 0.8096, -0.5569, -0.5468, 0.7325, -0.4355, -0.4302, 0.9039, -0.3662, -0.465, 0.8482, -0.6125, -0.5151, 0.8096, -0.4389, -0.3252, 0.9378, -0.6817, -0.4402, 0.8914, -0.6499, -0.23, 0.9443, -0.4387, 0.0142, 0.9635, -0.3771, -0.4029, 0.892, -0.4389, -0.3252, 0.9378, -0.3771, -0.4029, 0.892, -0.4387, 0.0142, 0.9635, -0.383, 0.07, 0.9374, -0.3771, -0.4029, 0.892, -0.3662, -0.465, 0.8482, -0.4355, -0.4302, 0.9039, -0.4389, -0.3252, 0.9378, -0.3771, -0.4029, 0.892, -0.4355, -0.4302, 0.9039, -0.2176, -0.5072, 0.7511, -0.6125, -0.5151, 0.8096, -0.3662, -0.465, 0.8482, -0.5139, -0.5592, 0.0997, -0.5259, -0.5532, 0.6471, -0.1046, -0.5536, 0.593, -0.7379, 0.0381, 0.9491, -0.8798, 0.3006, 0.9694, -0.7832, 0.2234, 0.9391, -0.7379, 0.0381, 0.9491, -0.8208, -0.0043, 0.9764, -0.8798, 0.3006, 0.9694, -0.2924, -0.3687, 0.9409, -0.1905, -0.4424, 0.8916, -0.3662, -0.465, 0.8482, -0.2176, -0.5072, 0.7511, -0.3662, -0.465, 0.8482, -0.1905, -0.4424, 0.8916, -0.3805, -0.5544, -0.1827, -0.5139, -0.5592, 0.0997, -0.1305, -0.5614, 0.1243, -0.0951, 0.1485, 0.9979, -0.2924, -0.3687, 0.9409, -0.3123, 0.1389, 0.9832, -0.5259, -0.5532, 0.6471, -0.2176, -0.5072, 0.7511, -0.1046, -0.5536, 0.593, -0.0063, 0.2442, 0.9791, -0.1988, -0.3458, 0.9217, -0.0951, 0.1485, 0.9979, -0.2176, -0.5072, 0.7511, -0.1905, -0.4424, 0.8916, -0.0779, -0.4563, 0.901, -0.1988, -0.3458, 0.9217, -0.0779, -0.4563, 0.901, -0.1905, -0.4424, 0.8916, 0.0844, -0.1717, 0.9671, 0.0278, -0.3935, 0.963, -0.0087, -0.0917, 0.9788, -0.1122, -0.3647, 0.9545, -0.1988, -0.3458, 0.9217, -0.0063, 0.2442, 0.9791, -0.0087, -0.0917, 0.9788, 0.0278, -0.3935, 0.963, -0.1122, -0.3647, 0.9545, 0.019, 0.1697, 0.9992, -0.1122, -0.3647, 0.9545, -0.0063, 0.2442, 0.9791, -0.0087, -0.0917, 0.9788, -0.1122, -0.3647, 0.9545, 0.019, 0.1697, 0.9992, -0.2176, -0.5072, 0.7511, -0.0779, -0.4563, 0.901, -0.1046, -0.5536, 0.593, -1.2938, 0.1494, 0.5284, -1.2338, 0.3922, 0.565, -1.2598, 0.0634, 0.6016, -1.2598, 0.0634, 0.6016, -1.2393, 0.3538, 0.6411, -1.2612, 0.118, 0.6858, -1.2897, 0.2147, 0.2847, -1.294, -0.0379, 0.5213, -1.3063, -0.0503, 0.3298, -1.2367, 0.3883, 0.2956, -1.279, 0.3096, 0.5059, -1.2897, 0.2147, 0.2847, -1.2726, 0.2504, 0.2071, -1.3063, -0.0503, 0.3298, -1.2921, -0.1, 0.2586, -1.2726, 0.2504, 0.2071, -1.2921, -0.1, 0.2586, -1.3084, -0.0045, 0.13, -1.2884, 0.2742, 0.1168, -1.2726, 0.2504, 0.2071, -1.3084, -0.0045, 0.13, -1.2726, 0.2504, 0.2071, -1.2367, 0.3883, 0.2956, -1.2897, 0.2147, 0.2847, -1.2884, 0.2742, 0.1168, -1.2367, 0.3883, 0.2956, -1.2726, 0.2504, 0.2071, -1.1932, 0.2283, 0.8377, -1.1461, 0.0536, 0.9012, -1.2071, -0.147, 0.7932, -1.2612, 0.118, 0.6858, -1.1837, 0.3673, 0.8129, -1.1932, 0.2283, 0.8377, -1.2598, 0.0634, 0.6016, -1.2612, 0.118, 0.6858, -1.2413, -0.1416, 0.6834, -1.2402, 0.4293, 0.4445, -1.2338, 0.3922, 0.565, -1.279, 0.3096, 0.5059, -1.1795, 0.457, 0.3058, -1.2367, 0.3883, 0.2956, -1.2501, 0.3877, 0.0996, -1.2048, 0.3997, -0.0805, -1.2501, 0.3877, 0.0996, -1.2631, 0.2751, -0.0179, -1.2048, 0.3997, -0.0805, -1.1115, 0.4659, -0.0421, -1.1795, 0.457, 0.3058, -1.0661, 0.2445, 0.9146, -1.0827, -0.0296, 0.9337, -1.139, 0.2417, 0.9036, -1.0827, -0.0296, 0.9337, -1.1461, 0.0536, 0.9012, -1.139, 0.2417, 0.9036, -1.139, 0.2417, 0.9036, -1.1461, 0.0536, 0.9012, -1.1932, 0.2283, 0.8377, -1.1837, 0.3673, 0.8129, -1.0976, 0.4725, 0.8169, -1.0353, 0.384, 0.9113, -1.2034, 0.454, 0.6051, -1.0976, 0.4725, 0.8169, -1.1837, 0.3673, 0.8129, -1.1115, 0.4659, -0.0421, -1.1074, 0.4616, 0.0658, -1.1795, 0.457, 0.3058, -1.0276, 0.0367, 1.0075, -1.0827, -0.0296, 0.9337, -1.0661, 0.2445, 0.9146, -1.0353, 0.384, 0.9113, -1.0264, 0.2401, 0.9865, -1.0661, 0.2445, 0.9146, -0.9908, 0.5075, 0.8175, -1.0353, 0.384, 0.9113, -1.0976, 0.4725, 0.8169, -0.9258, 0.5487, 0.7388, -1.0976, 0.4725, 0.8169, -1.1512, 0.4973, 0.599, -1.1512, 0.4973, 0.599, -0.958, 0.5549, 0.5423, -0.9258, 0.5487, 0.7388, -1.0932, 0.5119, 0.4655, -0.958, 0.5549, 0.5423, -1.1512, 0.4973, 0.599, -0.9935, 0.536, 0.2717, -0.9273, 0.5501, 0.4146, -1.1795, 0.457, 0.3058, -1.1074, 0.4616, 0.0658, -0.9935, 0.536, 0.2717, -1.1795, 0.457, 0.3058, -0.9707, 0.5484, -0.0308, -0.9935, 0.536, 0.2717, -1.1074, 0.4616, 0.0658, -1.0264, 0.2401, 0.9865, -0.8798, 0.3006, 0.9694, -1.0276, 0.0367, 1.0075, -0.8798, 0.3006, 0.9694, -1.0264, 0.2401, 0.9865, -1.0353, 0.384, 0.9113, -0.7998, 0.5882, 0.0133, -0.9935, 0.536, 0.2717, -0.9707, 0.5484, -0.0308, -0.8208, -0.0043, 0.9764, -0.8889, -0.0052, 0.9735, -0.8798, 0.3006, 0.9694, -0.8005, 0.4053, 0.8753, -0.8798, 0.3006, 0.9694, -0.9393, 0.3955, 0.9168, -0.8005, 0.4053, 0.8753, -0.9393, 0.3955, 0.9168, -0.9908, 0.5075, 0.8175, -0.6863, 0.5274, 0.6899, -0.8005, 0.4053, 0.8753, -0.9258, 0.5487, 0.7388, -0.958, 0.5549, 0.5423, -0.7499, 0.5509, 0.5314, -0.9258, 0.5487, 0.7388, -1.0399, -0.3685, -0.8578, -1.0872, 0.0664, -0.9514, -1.133, -0.2087, -0.8613, -1.0399, -0.3685, -0.8578, -1.0026, 0.0707, -0.9932, -1.0872, 0.0664, -0.9514, -0.7247, 0.2797, 0.9469, -0.7379, 0.0381, 0.9491, -0.7832, 0.2234, 0.9391, -0.7832, 0.2234, 0.9391, -0.8798, 0.3006, 0.9694, -0.8005, 0.4053, 0.8753, -0.6851, 0.4215, 0.8442, -0.7247, 0.2797, 0.9469, -0.8005, 0.4053, 0.8753, -0.6779, 0.3011, 0.9387, -0.7379, 0.0381, 0.9491, -0.7247, 0.2797, 0.9469, -0.6851, 0.4215, 0.8442, -0.4534, 0.3735, 0.9368, -0.6779, 0.3011, 0.9387, -0.6863, 0.5274, 0.6899, -0.6851, 0.4215, 0.8442, -0.8005, 0.4053, 0.8753, -0.6289, 0.578, 0.4458, -0.7499, 0.5509, 0.5314, -0.6114, 0.6246, 0.3133, -0.9273, 0.5501, 0.4146, -0.6114, 0.6246, 0.3133, -0.7499, 0.5509, 0.5314, -0.4534, 0.3735, 0.9368, -0.4446, 0.2884, 0.9623, -0.6779, 0.3011, 0.9387, -0.4336, 0.4284, 0.8736, -0.4534, 0.3735, 0.9368, -0.6851, 0.4215, 0.8442, -0.492, 0.5019, 0.7365, -0.6851, 0.4215, 0.8442, -0.6863, 0.5274, 0.6899, -0.5157, 0.5482, 0.6261, -0.492, 0.5019, 0.7365, -0.6863, 0.5274, 0.6899, -0.6114, 0.6246, 0.3133, -0.5157, 0.5482, 0.6261, -0.6289, 0.578, 0.4458, -0.4616, 0.6124, 0.2016, -0.6114, 0.6246, 0.3133, -0.7301, 0.6227, 0.0809, -0.6114, 0.6246, 0.3133, -0.4616, 0.6124, 0.2016, -0.4382, 0.5858, 0.4716, -0.4446, 0.2884, 0.9623, -0.383, 0.07, 0.9374, -0.4387, 0.0142, 0.9635, -0.3854, 0.3515, 0.9317, -0.383, 0.07, 0.9374, -0.4446, 0.2884, 0.9623, -0.4212, 0.6011, 0.3303, -0.2899, 0.5454, 0.5701, -0.4382, 0.5858, 0.4716, -0.4616, 0.6124, 0.2016, -0.4212, 0.6011, 0.3303, -0.4382, 0.5858, 0.4716, -0.3144, 0.5753, 0.0271, -0.4212, 0.6011, 0.3303, -0.4616, 0.6124, 0.2016, -0.3854, 0.3515, 0.9317, -0.3123, 0.1389, 0.9832, -0.383, 0.07, 0.9374, -0.3854, 0.3515, 0.9317, -0.315, 0.3913, 0.962, -0.3123, 0.1389, 0.9832, -0.4336, 0.4284, 0.8736, -0.315, 0.3913, 0.962, -0.3854, 0.3515, 0.9317, -0.4382, 0.5858, 0.4716, -0.2899, 0.5454, 0.5701, -0.5157, 0.5482, 0.6261, -0.4212, 0.6011, 0.3303, -0.1659, 0.5385, 0.5746, -0.2899, 0.5454, 0.5701, -0.0842, 0.4226, 0.9635, -0.315, 0.3913, 0.962, -0.3372, 0.507, 0.7723, -0.2899, 0.5454, 0.5701, -0.3372, 0.507, 0.7723, -0.5157, 0.5482, 0.6261, -0.0842, 0.4226, 0.9635, -0.1129, 0.3212, 0.9857, -0.315, 0.3913, 0.962, 0.0155, 0.5315, 0.7283, -0.0842, 0.4226, 0.9635, -0.3372, 0.507, 0.7723, -0.0842, 0.4226, 0.9635, -0.0086, 0.426, 0.9746, -0.1129, 0.3212, 0.9857, -0.0086, 0.426, 0.9746, -0.0951, 0.1485, 0.9979, -0.1129, 0.3212, 0.9857, -0.0063, 0.2442, 0.9791, -0.0951, 0.1485, 0.9979, -0.0086, 0.426, 0.9746, -0.0086, 0.426, 0.9746, -0.0842, 0.4226, 0.9635, 0.0155, 0.5315, 0.7283, 0.1147, 0.5742, 0.4728, 0.0155, 0.5315, 0.7283, -0.1659, 0.5385, 0.5746, -1.3082, -0.2074, -0.2371, -1.3062, -0.0543, -0.0649, -1.2814, -0.3304, 0.0513, -1.2837, -0.3908, -0.4511, -1.2712, -0.4766, -0.184, -1.2217, -0.5036, -0.4568, -1.2957, -0.3712, -0.3342, -1.3082, -0.2074, -0.2371, -1.2712, -0.4766, -0.184, -1.313, 0.0222, -0.2224, -1.3082, -0.2074, -0.2371, -1.2957, -0.3712, -0.3342, -1.2989, 0.0376, -0.3688, -1.2957, -0.3712, -0.3342, -1.3047, -0.2326, -0.4616, -1.2851, -0.2189, -0.5414, -1.3047, -0.2326, -0.4616, -1.2837, -0.3908, -0.4511, -1.2851, -0.2189, -0.5414, -1.292, 0.0335, -0.5301, -1.3047, -0.2326, -0.4616, -1.2347, -0.075, -0.5853, -1.2851, -0.2189, -0.5414, -1.2318, -0.2584, -0.577, -1.2347, -0.075, -0.5853, -1.292, 0.0335, -0.5301, -1.2851, -0.2189, -0.5414, -1.2814, -0.3304, 0.0513, -1.2446, -0.5026, 0.0926, -1.2712, -0.4766, -0.184, -1.2257, -0.441, -0.6024, -1.2837, -0.3908, -0.4511, -1.2217, -0.5036, -0.4568, -1.2257, -0.441, -0.6024, -1.2217, -0.5036, -0.4568, -1.1529, -0.5034, -0.6605, -1.1662, -0.4239, -0.7552, -1.2257, -0.441, -0.6024, -1.1529, -0.5034, -0.6605, -1.2851, -0.2189, -0.5414, -1.2257, -0.441, -0.6024, -1.2318, -0.2584, -0.577, -1.2318, -0.2584, -0.577, -1.2257, -0.441, -0.6024, -1.2032, -0.2386, -0.7456, -1.2347, -0.075, -0.5853, -1.2318, -0.2584, -0.577, -1.2032, -0.2386, -0.7456, -1.214, -0.033, -0.7001, -1.2347, -0.075, -0.5853, -1.2032, -0.2386, -0.7456, -1.1802, -0.1316, -0.7898, -1.214, -0.033, -0.7001, -1.2032, -0.2386, -0.7456, -1.1714, 0.0215, -0.8721, -1.1717, 0.0812, -0.7873, -1.1802, -0.1316, -0.7898, -1.0749, -0.5497, -0.6191, -1.2217, -0.5036, -0.4568, -1.2031, -0.528, -0.1703, -1.0749, -0.5497, -0.6191, -1.2031, -0.528, -0.1703, -1.0899, -0.5479, -0.0492, -1.1662, -0.4239, -0.7552, -1.1529, -0.5034, -0.6605, -1.0493, -0.4957, -0.7824, -1.1802, -0.1316, -0.7898, -1.2032, -0.2386, -0.7456, -1.1662, -0.4239, -0.7552, -1.0991, -0.3941, -0.8268, -1.1802, -0.1316, -0.7898, -1.1662, -0.4239, -0.7552, -1.1802, -0.1316, -0.7898, -1.0991, -0.3941, -0.8268, -1.133, -0.2087, -0.8613, -1.133, -0.2087, -0.8613, -1.1714, 0.0215, -0.8721, -1.1802, -0.1316, -0.7898, -1.0991, -0.3941, -0.8268, -1.1662, -0.4239, -0.7552, -1.0493, -0.4957, -0.7824, -0.8948, -0.5192, -0.7551, -1.0493, -0.4957, -0.7824, -1.0749, -0.5497, -0.6191, -1.0399, -0.3685, -0.8578, -1.0493, -0.4957, -0.7824, -0.9898, -0.4382, -0.818, -0.9688, -0.2626, -0.8608, -1.0399, -0.3685, -0.8578, -0.9898, -0.4382, -0.818, -1.0797, 0.5281, -0.5408, -1.1471, 0.4287, -0.6589, -1.0904, 0.4901, -0.8027, -1.0797, 0.5281, -0.5408, -1.1913, 0.3897, -0.5093, -1.1471, 0.4287, -0.6589, -1.0749, -0.5497, -0.6191, -1.0899, -0.5479, -0.0492, -0.9184, -0.5556, -0.1383, -0.84, -0.5441, -0.6495, -1.0749, -0.5497, -0.6191, -0.9184, -0.5556, -0.1383, -1.0749, -0.5497, -0.6191, -0.84, -0.5441, -0.6495, -0.8948, -0.5192, -0.7551, -0.9898, -0.4382, -0.818, -0.8754, -0.4184, -0.862, -0.8966, -0.2792, -0.9348, -0.9688, -0.2626, -0.8608, -0.9898, -0.4382, -0.818, -0.8966, -0.2792, -0.9348, -0.9188, 0.028, -0.9628, -0.9688, -0.2626, -0.8608, -0.8966, -0.2792, -0.9348, -0.8948, -0.5192, -0.7551, -0.84, -0.5441, -0.6495, -0.7498, -0.5126, -0.8104, -0.8754, -0.4184, -0.862, -0.9898, -0.4382, -0.818, -0.8948, -0.5192, -0.7551, -0.8754, -0.4184, -0.862, -0.8948, -0.5192, -0.7551, -0.7793, -0.4263, -0.9002, -0.8702, -0.0105, -0.9881, -0.8966, -0.2792, -0.9348, -0.8349, -0.2413, -0.9345, -0.8096, -0.0334, -0.9576, -0.8702, -0.0105, -0.9881, -0.8349, -0.2413, -0.9345, -0.84, -0.5441, -0.6495, -0.9184, -0.5556, -0.1383, -0.696, -0.5517, -0.3071, -0.84, -0.5441, -0.6495, -0.6633, -0.541, -0.7137, -0.7498, -0.5126, -0.8104, -0.5986, -0.4429, -1.004, -0.7793, -0.4263, -0.9002, -0.6036, -0.5193, -0.9436, -0.7498, -0.5126, -0.8104, -0.6633, -0.541, -0.7137, -0.5103, -0.5486, -0.8814, -0.751, -0.2897, -0.9738, -0.7793, -0.4263, -0.9002, -0.5986, -0.4429, -1.004, -0.7179, -0.0914, -1.0135, -0.751, -0.2897, -0.9738, -0.5986, -0.4429, -1.004, -0.7095, -0.5611, 0.1118, -0.5139, -0.5592, 0.0997, -0.696, -0.5517, -0.3071, -0.5568, -0.2494, -1.0302, -0.7179, -0.0914, -1.0135, -0.5986, -0.4429, -1.004, -0.58, 0.0237, -1.0087, -0.7179, -0.0914, -1.0135, -0.5568, -0.2494, -1.0302, -0.571, -0.5514, -0.4909, -0.3805, -0.5544, -0.1827, -0.2805, -0.5436, -0.4736, -0.5568, -0.2494, -1.0302, -0.5986, -0.4429, -1.004, -0.4551, -0.4339, -0.9968, -0.4751, -0.1946, -0.9618, -0.5568, -0.2494, -1.0302, -0.4634, -0.3096, -0.9973, -0.5005, -0.0566, -0.9564, -0.4751, -0.1946, -0.9618, -0.4403, 0.0363, -0.9993, -0.2742, -0.5393, -0.6314, -0.5103, -0.5486, -0.8814, -0.571, -0.5514, -0.4909, -0.3893, -0.2147, -1.0074, -0.4634, -0.3096, -0.9973, -0.4551, -0.4339, -0.9968, -0.4751, -0.1946, -0.9618, -0.4634, -0.3096, -0.9973, -0.3893, -0.2147, -1.0074, -0.2742, -0.5393, -0.6314, -0.2805, -0.5436, -0.4736, -0.2324, -0.5436, -0.5465, -0.5103, -0.5486, -0.8814, -0.1981, -0.5289, -0.7479, -0.2355, -0.4876, -0.9158, -0.2386, -0.4025, -0.9691, -0.4479, -0.5135, -0.9667, -0.2355, -0.4876, -0.9158, -0.0191, -0.5443, -0.3291, -0.3805, -0.5544, -0.1827, -0.1305, -0.5614, 0.1243, -0.2355, -0.4876, -0.9158, -0.1981, -0.5289, -0.7479, -0.1432, -0.4882, -0.8989, -0.2757, -0.0349, -1.0058, -0.2386, -0.4025, -0.9691, -0.1928, -0.1055, -0.997, -0.2742, -0.5393, -0.6314, -0.2324, -0.5436, -0.5465, 0.1365, -0.5518, -0.5898, -0.2355, -0.4876, -0.9158, -0.1432, -0.4882, -0.8989, -0.2386, -0.4025, -0.9691, -0.2324, -0.5436, -0.5465, -0.0191, -0.5443, -0.3291, 0.1365, -0.5518, -0.5898, 0.0925, -0.5016, -0.9522, -0.1432, -0.4882, -0.8989, 0.1893, -0.5396, -0.8765, -0.1471, -0.0382, -1.0224, -0.0346, -0.2058, -1.0196, 0.0283, 0.0217, -1.0254, -1.313, 0.0222, -0.2224, -1.2631, 0.2751, -0.0179, -1.3062, -0.0543, -0.0649, -1.3062, -0.0543, -0.0649, -1.2631, 0.2751, -0.0179, -1.2806, 0.0062, 0.018, -1.2709, 0.2657, -0.2035, -1.2631, 0.2751, -0.0179, -1.313, 0.0222, -0.2224, -1.2989, 0.0376, -0.3688, -1.2709, 0.2657, -0.2035, -1.313, 0.0222, -0.2224, -1.2678, 0.2823, -0.4324, -1.2757, 0.2883, -0.3271, -1.2989, 0.0376, -0.3688, -1.2332, 0.2646, -0.5346, -1.292, 0.0335, -0.5301, -1.2347, -0.075, -0.5853, -1.2048, 0.3997, -0.0805, -1.2631, 0.2751, -0.0179, -1.2709, 0.2657, -0.2035, -1.2757, 0.2883, -0.3271, -1.2048, 0.3997, -0.0805, -1.2709, 0.2657, -0.2035, -1.2757, 0.2883, -0.3271, -1.234, 0.3721, -0.2993, -1.2048, 0.3997, -0.0805, -1.234, 0.3721, -0.2993, -1.2757, 0.2883, -0.3271, -1.2678, 0.2823, -0.4324, -1.1913, 0.3897, -0.5093, -1.234, 0.3721, -0.2993, -1.2678, 0.2823, -0.4324, -1.1996, 0.1741, -0.5837, -1.2347, -0.075, -0.5853, -1.214, -0.033, -0.7001, -1.1851, 0.1904, -0.6816, -1.1996, 0.1741, -0.5837, -1.214, -0.033, -0.7001, -1.1471, 0.4287, -0.6589, -1.2332, 0.2646, -0.5346, -1.1851, 0.1904, -0.6816, -1.0797, 0.5281, -0.5408, -1.1115, 0.4659, -0.0421, -1.234, 0.3721, -0.2993, 0.4212, -0.1201, 0.9423, 0.2988, 0.2156, 0.9912, 0.4027, 0.1562, 0.9788, 0.4212, -0.1201, 0.9423, 0.2856, -0.0642, 0.95, 0.2988, 0.2156, 0.9912, -1.1717, 0.0812, -0.7873, -1.1431, 0.3111, -0.6897, -1.1851, 0.1904, -0.6816, -1.1246, 0.3479, -0.7868, -1.1431, 0.3111, -0.6897, -1.1717, 0.0812, -0.7873, -1.1471, 0.4287, -0.6589, -1.1851, 0.1904, -0.6816, -1.1431, 0.3111, -0.6897, -1.1246, 0.3479, -0.7868, -1.1471, 0.4287, -0.6589, -1.1431, 0.3111, -0.6897, -1.0904, 0.4901, -0.8027, -1.1471, 0.4287, -0.6589, -1.1246, 0.3479, -0.7868, -1.1714, 0.0215, -0.8721, -1.1246, 0.3479, -0.7868, -1.1717, 0.0812, -0.7873, -1.1246, 0.3479, -0.7868, -1.1714, 0.0215, -0.8721, -1.0895, 0.1961, -0.9582, -0.9707, 0.5484, -0.0308, -1.1074, 0.4616, 0.0658, -1.1115, 0.4659, -0.0421, -1.0087, 0.5871, -0.3607, -0.9707, 0.5484, -0.0308, -1.1115, 0.4659, -0.0421, -1.0355, 0.5583, -0.684, -1.0797, 0.5281, -0.5408, -1.0904, 0.4901, -0.8027, -1.0904, 0.4901, -0.8027, -1.1246, 0.3479, -0.7868, -1.0442, 0.4118, -0.8771, -1.0895, 0.1961, -0.9582, -1.0026, 0.0707, -0.9932, -0.991, 0.365, -0.9657, -0.9113, 0.5904, -0.3405, -0.9707, 0.5484, -0.0308, -1.0087, 0.5871, -0.3607, -0.9113, 0.5904, -0.3405, -0.8922, 0.5773, -0.2643, -0.9707, 0.5484, -0.0308, -0.9113, 0.5904, -0.3405, -1.0087, 0.5871, -0.3607, -0.9547, 0.5983, -0.4975, -0.8816, 0.5737, -0.5658, -0.9547, 0.5983, -0.4975, -0.9135, 0.555, -0.6973, -0.991, 0.365, -0.9657, -1.0238, 0.4922, -0.8727, -1.0442, 0.4118, -0.8771, -1.0238, 0.4922, -0.8727, -0.991, 0.365, -0.9657, -0.9128, 0.4069, -0.9296, -0.9128, 0.4069, -0.9296, -0.9135, 0.555, -0.6973, -1.0238, 0.4922, -0.8727, -1.0026, 0.0707, -0.9932, -0.9188, 0.028, -0.9628, -0.991, 0.365, -0.9657, -0.991, 0.365, -0.9657, -0.9188, 0.028, -0.9628, -0.9128, 0.4069, -0.9296, -0.8853, 0.221, -0.9534, -0.9128, 0.4069, -0.9296, -0.9188, 0.028, -0.9628, -0.8816, 0.5737, -0.5658, -0.9113, 0.5904, -0.3405, -0.9547, 0.5983, -0.4975, -0.793, 0.1296, -0.9478, -0.8702, -0.0105, -0.9881, -0.8096, -0.0334, -0.9576, -0.9128, 0.4069, -0.9296, -0.8853, 0.221, -0.9534, -0.8383, 0.3405, -0.96, -0.7371, 0.5513, -0.5248, -0.8922, 0.5773, -0.2643, -0.9113, 0.5904, -0.3405, -0.8922, 0.5773, -0.2643, -0.5673, 0.5714, -0.4136, -0.7905, 0.5755, -0.1535, -0.7326, 0.4998, -0.7557, -0.7371, 0.5513, -0.5248, -0.8816, 0.5737, -0.5658, -0.8098, 0.4483, -0.8921, -0.8816, 0.5737, -0.5658, -0.9135, 0.555, -0.6973, -0.8098, 0.4483, -0.8921, -0.7326, 0.4998, -0.7557, -0.8816, 0.5737, -0.5658, -0.8383, 0.3405, -0.96, -0.793, 0.1296, -0.9478, -0.7916, 0.225, -0.9257, -0.6968, 0.3558, -0.9357, -0.7916, 0.225, -0.9257, -0.7223, 0.0876, -0.9871, -0.7425, 0.3872, -0.9055, -0.7916, 0.225, -0.9257, -0.6968, 0.3558, -0.9357, -0.55, 0.5891, -0.1684, -0.7301, 0.6227, 0.0809, -0.7998, 0.5882, 0.0133, -0.5673, 0.5714, -0.4136, -0.8922, 0.5773, -0.2643, -0.7371, 0.5513, -0.5248, -0.7326, 0.4998, -0.7557, -0.5673, 0.5714, -0.4136, -0.7371, 0.5513, -0.5248, -0.7425, 0.3872, -0.9055, -0.6968, 0.3558, -0.9357, -0.6969, 0.44, -0.8749, -0.6968, 0.3558, -0.9357, -0.5796, 0.4488, -0.8726, -0.6969, 0.44, -0.8749, -0.793, 0.1296, -0.9478, -0.8096, -0.0334, -0.9576, -0.7223, 0.0876, -0.9871, -0.6968, 0.3558, -0.9357, -0.7223, 0.0876, -0.9871, -0.58, 0.0237, -1.0087, -0.6968, 0.3558, -0.9357, -0.58, 0.0237, -1.0087, -0.5937, 0.3268, -0.9469, -0.5673, 0.5714, -0.4136, -0.55, 0.5891, -0.1684, -0.7998, 0.5882, 0.0133, -0.5796, 0.4488, -0.8726, -0.5265, 0.5534, -0.5305, -0.7326, 0.4998, -0.7557, -0.5796, 0.4488, -0.8726, -0.5191, 0.4582, -0.8434, -0.5265, 0.5534, -0.5305, -0.5673, 0.5714, -0.4136, -0.2559, 0.569, -0.5042, -0.55, 0.5891, -0.1684, -0.5105, 0.3803, -0.9113, -0.5191, 0.4582, -0.8434, -0.5796, 0.4488, -0.8726, -0.5937, 0.3268, -0.9469, -0.4999, 0.0649, -0.9728, -0.5105, 0.3803, -0.9113, -0.3759, 0.5796, -0.2895, -0.3144, 0.5753, 0.0271, -0.55, 0.5891, -0.1684, -0.2559, 0.569, -0.5042, -0.3759, 0.5796, -0.2895, -0.55, 0.5891, -0.1684, -0.5265, 0.5534, -0.5305, -0.2559, 0.569, -0.5042, -0.5673, 0.5714, -0.4136, -0.2832, 0.4791, -0.8147, -0.4291, 0.4987, -0.7565, -0.5191, 0.4582, -0.8434, -0.2832, 0.4791, -0.8147, -0.5191, 0.4582, -0.8434, -0.3452, 0.4538, -0.8758, -0.3452, 0.4538, -0.8758, -0.5191, 0.4582, -0.8434, -0.5105, 0.3803, -0.9113, -0.5265, 0.5534, -0.5305, -0.4291, 0.4987, -0.7565, -0.1934, 0.5076, -0.7854, -0.3452, 0.4538, -0.8758, -0.4465, 0.2039, -0.9836, -0.3125, 0.2497, -0.9846, -0.2832, 0.4791, -0.8147, -0.3452, 0.4538, -0.8758, -0.2641, 0.3349, -0.9374, -0.4403, 0.0363, -0.9993, -0.2757, -0.0349, -1.0058, -0.3125, 0.2497, -0.9846, -0.3125, 0.2497, -0.9846, -0.4465, 0.2039, -0.9836, -0.4403, 0.0363, -0.9993, -0.3125, 0.2497, -0.9846, -0.2641, 0.3349, -0.9374, -0.3452, 0.4538, -0.8758, -0.1934, 0.5076, -0.7854, -0.1669, 0.5579, -0.5129, -0.2559, 0.569, -0.5042, -0.1934, 0.5076, -0.7854, -0.2832, 0.4791, -0.8147, -0.2219, 0.3837, -0.931, -0.2757, -0.0349, -1.0058, -0.1928, -0.1055, -0.997, -0.2641, 0.3349, -0.9374, -0.2641, 0.3349, -0.9374, -0.1928, -0.1055, -0.997, -0.1952, 0.2215, -1.0004, -0.2641, 0.3349, -0.9374, -0.1952, 0.2215, -1.0004, -0.2219, 0.3837, -0.931, -0.1934, 0.5076, -0.7854, 0.0202, 0.5317, -0.7463, -0.1669, 0.5579, -0.5129, 0.0381, 0.3871, -0.9311, -0.1934, 0.5076, -0.7854, -0.2219, 0.3837, -0.931, 0.0593, 0.0974, -1.0168, -0.1471, -0.0382, -1.0224, 0.0283, 0.0217, -1.0254, 0.0844, -0.1717, 0.9671, 0.1652, -0.3782, 0.9615, 0.0278, -0.3935, 0.963, 0.019, 0.1697, 0.9992, 0.0844, -0.1717, 0.9671, -0.0087, -0.0917, 0.9788, -0.1046, -0.5536, 0.593, -0.0779, -0.4563, 0.901, 0.2382, -0.5619, 0.6325, 0.1869, -0.0122, 0.9594, 0.1652, -0.3782, 0.9615, 0.0844, -0.1717, 0.9671, 0.2388, -0.4445, 0.8897, -0.0779, -0.4563, 0.901, 0.1652, -0.3782, 0.9615, -0.1305, -0.5614, 0.1243, 0.231, -0.5586, 0.2499, 0.0411, -0.5589, -0.2148, 0.2856, -0.0642, 0.95, 0.2339, -0.3631, 0.9379, 0.1869, -0.0122, 0.9594, 0.2899, -0.3728, 0.9492, 0.2339, -0.3631, 0.9379, 0.2856, -0.0642, 0.95, 0.2856, -0.0642, 0.95, 0.4212, -0.1201, 0.9423, 0.2899, -0.3728, 0.9492, 0.2899, -0.3728, 0.9492, 0.2388, -0.4445, 0.8897, 0.2339, -0.3631, 0.9379, 0.5079, -0.4287, 0.8918, 0.2388, -0.4445, 0.8897, 0.2899, -0.3728, 0.9492, 0.231, -0.5586, 0.2499, 0.2382, -0.5619, 0.6325, 0.6373, -0.5598, 0.1609, 0.3533, -0.5507, -0.1668, 0.231, -0.5586, 0.2499, 0.6373, -0.5598, 0.1609, 0.5079, -0.4287, 0.8918, 0.5931, -0.4256, 0.924, 0.5452, -0.5068, 0.7766, 0.692, -0.5518, 0.4437, 0.2382, -0.5619, 0.6325, 0.671, -0.5365, 0.6931, 0.671, -0.5365, 0.6931, 0.2382, -0.5619, 0.6325, 0.5452, -0.5068, 0.7766, 0.6798, -0.2309, 0.9582, 0.6073, -0.2522, 0.9582, 0.5428, -0.1142, 0.9307, 0.6798, -0.2309, 0.9582, 0.5428, -0.1142, 0.9307, 0.4831, 0.2033, 0.9529, 0.4782, -0.1573, 0.9122, 0.5931, -0.4256, 0.924, 0.5079, -0.4287, 0.8918, 0.5428, -0.1142, 0.9307, 0.6073, -0.2522, 0.9582, 0.4782, -0.1573, 0.9122, 0.6073, -0.2522, 0.9582, 0.6798, -0.2309, 0.9582, 0.5931, -0.4256, 0.924, 0.671, -0.5365, 0.6931, 0.5452, -0.5068, 0.7766, 0.7033, -0.4969, 0.8325, 0.7761, -0.2222, 0.9537, 0.7712, -0.3948, 0.9463, 0.6798, -0.2309, 0.9582, 0.7252, 0.365, 0.9412, 0.7761, -0.2222, 0.9537, 0.6798, -0.2309, 0.9582, 0.7033, -0.4969, 0.8325, 0.7075, -0.4483, 0.8965, 0.8728, -0.5301, 0.8364, 0.7075, -0.4483, 0.8965, 1.0386, -0.4835, 0.9203, 0.8728, -0.5301, 0.8364, 0.671, -0.5365, 0.6931, 0.7033, -0.4969, 0.8325, 0.8728, -0.5301, 0.8364, 0.7075, -0.4483, 0.8965, 0.7712, -0.3948, 0.9463, 1.0386, -0.4835, 0.9203, 0.671, -0.5365, 0.6931, 0.8728, -0.5301, 0.8364, 0.9987, -0.5605, 0.7774, 0.692, -0.5518, 0.4437, 0.671, -0.5365, 0.6931, 0.9987, -0.5605, 0.7774, 0.9987, -0.5605, 0.7774, 0.8728, -0.5301, 0.8364, 1.0699, -0.5443, 0.8451, 0.9543, -0.5567, 0.2235, 0.692, -0.5518, 0.4437, 0.9987, -0.5605, 0.7774, 1.0301, -0.3173, 0.9959, 1.0386, -0.4835, 0.9203, 0.7712, -0.3948, 0.9463, 1.0301, -0.3173, 0.9959, 1.1701, -0.5152, 0.826, 1.0386, -0.4835, 0.9203, 0.9543, -0.5567, 0.2235, 1.1917, -0.5583, 0.5619, 1.0929, -0.5415, 0.0224, 1.0929, -0.5415, 0.0224, 0.8775, -0.5601, -0.4588, 0.9543, -0.5567, 0.2235, 1.161, -0.2121, 0.9826, 1.1813, -0.3244, 0.9296, 1.0974, -0.3222, 0.9562, 1.161, -0.2121, 0.9826, 1.0974, -0.3222, 0.9562, 1.1435, 0.0732, 0.9863, 1.0974, -0.3222, 0.9562, 1.1813, -0.3244, 0.9296, 1.1701, -0.5152, 0.826, 0.9987, -0.5605, 0.7774, 1.0699, -0.5443, 0.8451, 1.183, -0.5503, 0.7415, 1.0929, -0.5415, 0.0224, 1.1917, -0.5583, 0.5619, 1.1582, -0.528, 0.1715, 1.241, -0.4949, 0.768, 1.1701, -0.5152, 0.826, 1.1813, -0.3244, 0.9296, 1.1813, -0.3244, 0.9296, 1.2814, -0.2418, 0.817, 1.241, -0.4949, 0.768, 1.2814, -0.2418, 0.817, 1.1813, -0.3244, 0.9296, 1.161, -0.2121, 0.9826, 1.161, -0.2121, 0.9826, 1.2613, -0.0757, 0.8803, 1.2814, -0.2418, 0.817, 1.2521, -0.5072, 0.6249, 1.183, -0.5503, 0.7415, 1.241, -0.4949, 0.768, 1.2521, -0.5072, 0.6249, 1.241, -0.4949, 0.768, 1.2966, -0.2843, 0.7252, 1.2068, -0.489, 0.2522, 1.2521, -0.5072, 0.6249, 1.3067, -0.2753, 0.361, 1.1582, -0.528, 0.1715, 1.2068, -0.489, 0.2522, 1.2198, -0.4782, 0.1231, 1.2198, -0.4782, 0.1231, 1.2068, -0.489, 0.2522, 1.3037, -0.2541, 0.2059, 1.1582, -0.528, 0.1715, 1.2198, -0.4782, 0.1231, 1.2158, -0.4922, -0.0797, 1.2814, -0.2418, 0.817, 1.2613, -0.0757, 0.8803, 1.2973, -0.0285, 0.8078, 1.2998, -0.0391, 0.7, 1.2814, -0.2418, 0.817, 1.2973, -0.0285, 0.8078, 1.2973, -0.0285, 0.8078, 1.3011, 0.0583, 0.7668, 1.2998, -0.0391, 0.7, 1.3146, -0.2988, 0.5742, 1.2521, -0.5072, 0.6249, 1.2966, -0.2843, 0.7252, 1.2521, -0.5072, 0.6249, 1.3146, -0.2988, 0.5742, 1.3067, -0.2753, 0.361, 1.3262, 0.0785, 0.596, 1.2966, -0.2843, 0.7252, 1.2998, -0.0391, 0.7, 1.3146, -0.2988, 0.5742, 1.3262, 0.0785, 0.596, 1.3179, -0.2128, 0.4359, 1.3067, -0.2753, 0.361, 1.3146, -0.2988, 0.5742, 1.3179, -0.2128, 0.4359, 1.2846, -0.2585, 0.2829, 1.3067, -0.2753, 0.361, 1.3242, -0.0495, 0.3538, 1.2068, -0.489, 0.2522, 1.2846, -0.2585, 0.2829, 1.3037, -0.2541, 0.2059, 1.3037, -0.2541, 0.2059, 1.3022, 0.0145, 0.2839, 1.3166, -0.1976, 0.1361, 1.282, -0.255, 0.0417, 1.2198, -0.4782, 0.1231, 1.3166, -0.1976, 0.1361, 1.3149, -0.1764, -0.0503, 1.282, -0.255, 0.0417, 1.2945, 0.2057, -0.0042, -0.0086, 0.426, 0.9746, 0.1377, 0.233, 1.0052, -0.0063, 0.2442, 0.9791, 0.1379, 0.407, 0.9748, 0.1377, 0.233, 1.0052, -0.0086, 0.426, 0.9746, 0.0762, 0.5978, 0.2962, 0.1147, 0.5742, 0.4728, -0.1691, 0.5686, 0.318, 0.1503, 0.5879, 0.0358, 0.0762, 0.5978, 0.2962, 0.0114, 0.5774, -0.0828, 0.1377, 0.233, 1.0052, 0.1869, -0.0122, 0.9594, 0.0844, -0.1717, 0.9671, 0.1869, -0.0122, 0.9594, 0.2988, 0.2156, 0.9912, 0.2856, -0.0642, 0.95, 0.2287, 0.3608, 0.9555, 0.1377, 0.233, 1.0052, 0.1379, 0.407, 0.9748, 0.0762, 0.5978, 0.2962, 0.2944, 0.5737, 0.3499, 0.1147, 0.5742, 0.4728, 0.1503, 0.5879, 0.0358, 0.298, 0.5861, 0.2544, 0.0762, 0.5978, 0.2962, 0.4111, 0.3097, 0.9506, 0.2988, 0.2156, 0.9912, 0.2287, 0.3608, 0.9555, 0.2989, 0.469, 0.7387, 0.4111, 0.3097, 0.9506, 0.2287, 0.3608, 0.9555, 0.2944, 0.5737, 0.3499, 0.535, 0.5842, 0.4486, 0.3213, 0.5349, 0.6201, 0.4027, 0.1562, 0.9788, 0.4782, -0.1573, 0.9122, 0.4212, -0.1201, 0.9423, 0.535, 0.5842, 0.4486, 0.6747, 0.5376, 0.6545, 0.3838, 0.5075, 0.6517, 0.535, 0.5842, 0.4486, 0.3838, 0.5075, 0.6517, 0.3213, 0.5349, 0.6201, 0.298, 0.5861, 0.2544, 0.4938, 0.6009, 0.2403, 0.2944, 0.5737, 0.3499, 0.5422, 0.609, 0.1324, 0.4938, 0.6009, 0.2403, 0.298, 0.5861, 0.2544, 0.6669, 0.1889, 0.9734, 0.6798, -0.2309, 0.9582, 0.4831, 0.2033, 0.9529, 0.6669, 0.1889, 0.9734, 0.4831, 0.2033, 0.9529, 0.4701, 0.3299, 0.9219, 0.6829, 0.4866, 0.7541, 0.7252, 0.365, 0.9412, 0.4701, 0.3299, 0.9219, 0.6743, 0.5809, 0.3199, 0.6614, 0.5831, 0.4155, 0.535, 0.5842, 0.4486, 0.6743, 0.5809, 0.3199, 0.535, 0.5842, 0.4486, 0.4938, 0.6009, 0.2403, 0.6743, 0.5809, 0.3199, 0.4938, 0.6009, 0.2403, 0.5422, 0.609, 0.1324, 0.6669, 0.1889, 0.9734, 0.7252, 0.365, 0.9412, 0.6798, -0.2309, 0.9582, 0.7252, 0.365, 0.9412, 0.8369, -0.253, 0.9784, 0.7761, -0.2222, 0.9537, 0.6829, 0.4866, 0.7541, 0.9063, 0.4174, 0.9052, 0.7252, 0.365, 0.9412, 0.8856, 0.5506, 0.7341, 0.9063, 0.4174, 0.9052, 0.6829, 0.4866, 0.7541, 0.6747, 0.5376, 0.6545, 0.8856, 0.5506, 0.7341, 0.6829, 0.4866, 0.7541, 0.9668, 0.3826, 0.9784, 0.832, 0.3535, 0.9697, 0.9063, 0.4174, 0.9052, 0.91, 0.5615, 0.2569, 0.8856, 0.5506, 0.7341, 0.7746, 0.5534, 0.5069, 0.9325, 0.5271, 0.0344, 0.91, 0.5615, 0.2569, 0.7776, 0.5567, 0.0328, 0.8856, 0.5506, 0.7341, 1.0286, 0.5252, 0.7966, 0.9063, 0.4174, 0.9052, 1.0636, 0.343, 0.9667, 1.1175, 0.345, 0.9924, 1.0635, 0.1638, 0.942, 0.9063, 0.4174, 0.9052, 1.0636, 0.343, 0.9667, 0.9668, 0.3826, 0.9784, 1.1134, 0.4826, 0.8526, 1.0636, 0.343, 0.9667, 0.9063, 0.4174, 0.9052, 1.2162, 0.5622, 0.625, 1.0286, 0.5252, 0.7966, 0.8856, 0.5506, 0.7341, 1.2309, 0.5595, 0.4989, 1.2162, 0.5622, 0.625, 1.0574, 0.5548, 0.4089, 1.1175, 0.345, 0.9924, 1.1435, 0.0732, 0.9863, 1.0635, 0.1638, 0.942, 1.1893, 0.3352, 0.9684, 1.1175, 0.345, 0.9924, 1.2043, 0.4055, 0.9072, 1.1435, 0.0732, 0.9863, 1.2125, -0.0424, 0.9371, 1.161, -0.2121, 0.9826, 1.1893, 0.3352, 0.9684, 1.2532, 0.159, 0.8881, 1.2125, -0.0424, 0.9371, 1.2899, 0.4195, 0.7735, 1.1893, 0.3352, 0.9684, 1.2043, 0.4055, 0.9072, 1.2162, 0.5622, 0.625, 1.2636, 0.5049, 0.6813, 1.1134, 0.4826, 0.8526, 1.2309, 0.5595, 0.4989, 1.2877, 0.4764, 0.6217, 1.2162, 0.5622, 0.625, 1.235, 0.5287, 0.3737, 1.2848, 0.426, 0.368, 1.2877, 0.4764, 0.6217, 1.2309, 0.5595, 0.4989, 1.0574, 0.5548, 0.4089, 1.235, 0.5287, 0.3737, 1.235, 0.5287, 0.3737, 1.2877, 0.4764, 0.6217, 1.2309, 0.5595, 0.4989, 1.1577, 0.4931, 0.0942, 1.229, 0.4956, 0.2876, 1.235, 0.5287, 0.3737, 1.257, 0.4491, 0.2207, 1.229, 0.4956, 0.2876, 1.1577, 0.4931, 0.0942, 1.2532, 0.159, 0.8881, 1.2973, -0.0285, 0.8078, 1.2613, -0.0757, 0.8803, 1.3019, 0.3046, 0.6586, 1.3011, 0.0583, 0.7668, 1.3085, 0.3278, 0.7665, 1.3019, 0.3046, 0.6586, 1.3085, 0.3278, 0.7665, 1.2899, 0.4195, 0.7735, 1.3019, 0.3046, 0.6586, 1.2899, 0.4195, 0.7735, 1.2636, 0.5049, 0.6813, 1.3098, 0.341, 0.5167, 1.3262, 0.0785, 0.596, 1.3019, 0.3046, 0.6586, 1.3098, 0.341, 0.5167, 1.3019, 0.3046, 0.6586, 1.2877, 0.4764, 0.6217, 1.3019, 0.3046, 0.6586, 1.2636, 0.5049, 0.6813, 1.2877, 0.4764, 0.6217, 1.3204, 0.1647, 0.3497, 1.3262, 0.0785, 0.596, 1.3098, 0.341, 0.5167, 1.2848, 0.426, 0.368, 1.3204, 0.1647, 0.3497, 1.3098, 0.341, 0.5167, 1.3098, 0.341, 0.5167, 1.2877, 0.4764, 0.6217, 1.2848, 0.426, 0.368, 1.3022, 0.0145, 0.2839, 1.3204, 0.1647, 0.3497, 1.2792, 0.3532, 0.2783, 1.2792, 0.3532, 0.2783, 1.2848, 0.426, 0.368, 1.229, 0.4956, 0.2876, 1.2972, 0.3004, 0.1981, 1.3166, -0.1976, 0.1361, 1.3022, 0.0145, 0.2839, 1.2972, 0.3004, 0.1981, 1.3022, 0.0145, 0.2839, 1.2792, 0.3532, 0.2783, 1.2694, 0.372, -0.0313, 1.2972, 0.3004, 0.1981, 1.2792, 0.3532, 0.2783, 1.257, 0.4491, 0.2207, 1.2792, 0.3532, 0.2783, 1.229, 0.4956, 0.2876, 1.2945, 0.2057, -0.0042, 1.2972, 0.3004, 0.1981, 1.2694, 0.372, -0.0313, -0.1432, -0.4882, -0.8989, 0.0925, -0.5016, -0.9522, -0.0857, -0.415, -0.9664, 0.1893, -0.5396, -0.8765, -0.1981, -0.5289, -0.7479, 0.1365, -0.5518, -0.5898, 0.0925, -0.5016, -0.9522, 0.1893, -0.5396, -0.8765, 0.182, -0.4683, -0.9556, 0.0411, -0.5589, -0.2148, 0.231, -0.5586, 0.2499, 0.3533, -0.5507, -0.1668, 0.1365, -0.5518, -0.5898, 0.3533, -0.5507, -0.1668, 0.3672, -0.55, -0.461, 0.1893, -0.5396, -0.8765, 0.1365, -0.5518, -0.5898, 0.4095, -0.5501, -0.8059, 0.182, -0.4683, -0.9556, 0.1893, -0.5396, -0.8765, 0.2789, -0.5249, -0.936, 0.2101, -0.1335, -1.0636, 0.0925, -0.5016, -0.9522, 0.2575, -0.195, -1.0603, 0.0925, -0.5016, -0.9522, 0.3294, -0.3107, -1.0154, 0.2575, -0.195, -1.0603, 0.0925, -0.5016, -0.9522, 0.182, -0.4683, -0.9556, 0.3294, -0.3107, -1.0154, 0.4095, -0.5501, -0.8059, 0.1365, -0.5518, -0.5898, 0.3672, -0.55, -0.461, 0.182, -0.4683, -0.9556, 0.2789, -0.5249, -0.936, 0.4008, -0.5078, -0.9517, 0.182, -0.4683, -0.9556, 0.4008, -0.5078, -0.9517, 0.3294, -0.3107, -1.0154, 0.208, 0.0077, -1.0675, 0.2575, -0.195, -1.0603, 0.3378, -0.0305, -1.0293, 0.4008, -0.5078, -0.9517, 0.5146, -0.455, -0.9662, 0.3294, -0.3107, -1.0154, 0.3378, -0.0305, -1.0293, 0.2575, -0.195, -1.0603, 0.4173, -0.0719, -1.0145, 0.3533, -0.5507, -0.1668, 0.6373, -0.5598, 0.1609, 0.5871, -0.5609, -0.1226, 0.3672, -0.55, -0.461, 0.7046, -0.5413, -0.2897, 0.8775, -0.5601, -0.4588, 0.5146, -0.455, -0.9662, 0.4008, -0.5078, -0.9517, 0.5126, -0.5087, -0.9561, 0.488, -0.1633, -0.9688, 0.5146, -0.455, -0.9662, 0.5322, -0.173, -1.0144, 1.0153, -0.5445, -0.8403, 0.4095, -0.5501, -0.8059, 0.3672, -0.55, -0.461, 0.6358, -0.2188, -1.0468, 0.5146, -0.455, -0.9662, 0.6642, -0.3872, -0.9992, 0.5322, -0.173, -1.0144, 0.6358, -0.2188, -1.0468, 0.6747, -0.1106, -1.0779, 0.5322, -0.173, -1.0144, 0.6747, -0.1106, -1.0779, 0.547, 0.0405, -1.0406, 0.6747, -0.1106, -1.0779, 0.6358, -0.2188, -1.0468, 0.7273, -0.2042, -1.0359, 0.7046, -0.5413, -0.2897, 0.6373, -0.5598, 0.1609, 0.8775, -0.5601, -0.4588, 0.5126, -0.5087, -0.9561, 0.4095, -0.5501, -0.8059, 1.0153, -0.5445, -0.8403, 0.7273, -0.2042, -1.0359, 0.6642, -0.3872, -0.9992, 0.8498, -0.4947, -0.9557, -0.2924, -0.3687, 0.9409, -0.383, 0.07, 0.9374, -0.3123, 0.1389, 0.9832, -0.2924, -0.3687, 0.9409, -0.3771, -0.4029, 0.892, -0.383, 0.07, 0.9374, 0.6822, 0.0326, -1.0422, 0.6747, -0.1106, -1.0779, 0.7273, -0.2042, -1.0359, 0.6822, 0.0326, -1.0422, 0.7273, -0.2042, -1.0359, 0.8418, -0.1527, -1.0228, 0.6373, -0.5598, 0.1609, 0.9543, -0.5567, 0.2235, 0.8775, -0.5601, -0.4588, 0.8498, -0.4947, -0.9557, 1.0153, -0.5445, -0.8403, 1.0343, -0.4954, -0.9537, 0.8884, -0.2151, -0.9887, 0.8498, -0.4947, -0.9557, 0.9384, -0.4202, -0.9837, 0.7273, -0.2042, -1.0359, 0.8884, -0.2151, -0.9887, 0.8418, -0.1527, -1.0228, 0.9825, 0.0036, -0.9999, 0.8814, -0.0293, -0.9732, 0.8884, -0.2151, -0.9887, 0.9825, 0.0036, -0.9999, 0.8884, -0.2151, -0.9887, 0.9384, -0.4202, -0.9837, 1.0153, -0.5445, -0.8403, 1.0929, -0.5415, 0.0224, 1.145, -0.5239, -0.6055, 1.0343, -0.4954, -0.9537, 1.0948, -0.4922, -0.9018, 1.0575, -0.4215, -0.9881, 0.9825, 0.0036, -0.9999, 1.0575, -0.4215, -0.9881, 1.053, 0.3058, -0.9859, 1.053, 0.3058, -0.9859, 1.0575, -0.4215, -0.9881, 1.1352, 0.0055, -0.9499, 1.0929, -0.5415, 0.0224, 1.1582, -0.528, 0.1715, 1.145, -0.5239, -0.6055, 1.0948, -0.4922, -0.9018, 1.0153, -0.5445, -0.8403, 1.145, -0.5239, -0.6055, 1.0575, -0.4215, -0.9881, 1.0948, -0.4922, -0.9018, 1.1424, -0.3519, -0.9179, 1.0948, -0.4922, -0.9018, 1.1673, -0.3784, -0.8421, 1.1424, -0.3519, -0.9179, 1.1424, -0.3519, -0.9179, 1.1659, -0.1765, -0.8703, 1.1352, 0.0055, -0.9499, 1.1424, -0.3519, -0.9179, 1.1673, -0.3784, -0.8421, 1.1659, -0.1765, -0.8703, 1.1352, 0.0055, -0.9499, 1.1659, -0.1765, -0.8703, 1.1691, 0.1347, -0.858, 1.2949, -0.3036, -0.0613, 1.2158, -0.4922, -0.0797, 1.282, -0.255, 0.0417, 1.1871, -0.5048, -0.4215, 1.1582, -0.528, 0.1715, 1.2158, -0.4922, -0.0797, 1.1871, -0.5048, -0.4215, 1.305, -0.3258, -0.2931, 1.2948, -0.3265, -0.3826, 1.1673, -0.3784, -0.8421, 1.2787, -0.3061, -0.594, 1.23, -0.3126, -0.7325, 1.23, -0.3126, -0.7325, 1.2787, -0.3061, -0.594, 1.2255, -0.1458, -0.8166, 1.2255, -0.1458, -0.8166, 1.2787, -0.3061, -0.594, 1.2607, -0.0334, -0.7456, 1.2255, -0.1458, -0.8166, 1.2607, -0.0334, -0.7456, 1.2506, 0.1241, -0.7553, 1.1659, -0.1765, -0.8703, 1.1673, -0.3784, -0.8421, 1.2255, -0.1458, -0.8166, 1.2949, -0.3036, -0.0613, 1.282, -0.255, 0.0417, 1.3149, -0.1764, -0.0503, 1.305, -0.3258, -0.2931, 1.2158, -0.4922, -0.0797, 1.2949, -0.3036, -0.0613, 1.305, -0.3258, -0.2931, 1.2949, -0.3036, -0.0613, 1.3255, -0.2178, -0.2836, 1.3255, -0.2178, -0.2836, 1.303, 0.2778, -0.2773, 1.3062, -0.192, -0.3678, 1.2948, -0.3265, -0.3826, 1.3255, -0.2178, -0.2836, 1.3062, -0.192, -0.3678, 1.2787, -0.3061, -0.594, 1.2948, -0.3265, -0.3826, 1.3256, -0.2336, -0.4422, 1.2787, -0.3061, -0.594, 1.3256, -0.2336, -0.4422, 1.2607, -0.0334, -0.7456, 0.0765, 0.582, -0.4299, 0.1503, 0.5879, 0.0358, 0.0114, 0.5774, -0.0828, 0.0765, 0.582, -0.4299, -0.161, 0.5781, -0.3889, 0.0706, 0.5685, -0.5416, 0.0593, 0.0974, -1.0168, 0.0283, 0.0217, -1.0254, 0.1173, -0.1337, -1.065, 0.0765, 0.582, -0.4299, 0.3191, 0.5697, -0.0874, 0.1503, 0.5879, 0.0358, 0.1987, 0.6011, -0.4506, 0.0765, 0.582, -0.4299, 0.0706, 0.5685, -0.5416, 0.2243, 0.5523, -0.7552, 0.1987, 0.6011, -0.4506, 0.0706, 0.5685, -0.5416, 0.0202, 0.5317, -0.7463, 0.2243, 0.5523, -0.7552, 0.0706, 0.5685, -0.5416, 0.1546, -0.0109, -1.0307, 0.2101, -0.1335, -1.0636, 0.208, 0.0077, -1.0675, 0.1546, -0.0109, -1.0307, 0.208, 0.0077, -1.0675, 0.1932, 0.2677, -0.9967, 0.1987, 0.6011, -0.4506, 0.3191, 0.5697, -0.0874, 0.0765, 0.582, -0.4299, 0.4582, 0.5608, -0.185, 0.3191, 0.5697, -0.0874, 0.1987, 0.6011, -0.4506, 0.1949, 0.4657, -0.891, 0.1932, 0.2677, -0.9967, 0.2934, 0.3053, -0.9785, 0.208, 0.0077, -1.0675, 0.3378, -0.0305, -1.0293, 0.2934, 0.3053, -0.9785, 0.5553, 0.5493, -0.5515, 0.4582, 0.5608, -0.185, 0.1987, 0.6011, -0.4506, 0.5553, 0.5493, -0.5515, 0.1987, 0.6011, -0.4506, 0.2243, 0.5523, -0.7552, 0.3191, 0.5697, -0.0874, 0.4582, 0.5608, -0.185, 0.5422, 0.609, 0.1324, 0.5703, 0.4216, -0.9321, 0.4664, 0.5046, -0.8242, 0.4673, 0.4313, -0.9131, 0.5703, 0.4216, -0.9321, 0.4673, 0.4313, -0.9131, 0.5353, 0.3228, -0.9864, 0.4929, 0.2745, -0.9796, 0.3922, 0.1666, -1.0099, 0.4173, -0.0719, -1.0145, 0.547, 0.0405, -1.0406, 0.4929, 0.2745, -0.9796, 0.5322, -0.173, -1.0144, 0.745, 0.5452, -0.1908, 0.5422, 0.609, 0.1324, 0.4582, 0.5608, -0.185, 0.652, 0.3514, -0.964, 0.5703, 0.4216, -0.9321, 0.5353, 0.3228, -0.9864, 0.5553, 0.5493, -0.5515, 0.6905, 0.5441, -0.4535, 0.745, 0.5452, -0.1908, 0.5553, 0.5493, -0.5515, 0.79, 0.5296, -0.6689, 0.9076, 0.5397, -0.4631, 0.7174, 0.4875, -0.8252, 0.5703, 0.4216, -0.9321, 0.652, 0.3514, -0.964, 0.7357, 0.4278, -0.9046, 0.7174, 0.4875, -0.8252, 0.652, 0.3514, -0.964, 0.652, 0.3514, -0.964, 0.5353, 0.3228, -0.9864, 0.6822, 0.0326, -1.0422, 0.8546, 0.5438, -0.1712, 0.7776, 0.5567, 0.0328, 0.745, 0.5452, -0.1908, 0.6905, 0.5441, -0.4535, 0.8546, 0.5438, -0.1712, 0.745, 0.5452, -0.1908, 0.8873, 0.4459, -0.9006, 0.7357, 0.4278, -0.9046, 0.8891, 0.3489, -0.9565, 0.652, 0.3514, -0.964, 0.8484, 0.2561, -0.9414, 0.8891, 0.3489, -0.9565, 1.0203, 0.5266, -0.0512, 0.7776, 0.5567, 0.0328, 0.8546, 0.5438, -0.1712, 1.0203, 0.5266, -0.0512, 0.9325, 0.5271, 0.0344, 0.7776, 0.5567, 0.0328, 0.7174, 0.4875, -0.8252, 1.0096, 0.5185, -0.7164, 0.79, 0.5296, -0.6689, 0.7357, 0.4278, -0.9046, 1.0096, 0.5185, -0.7164, 0.7174, 0.4875, -0.8252, 0.8873, 0.4459, -0.9006, 1.0914, 0.507, -0.8002, 0.7357, 0.4278, -0.9046, 0.8484, 0.2561, -0.9414, 0.8814, -0.0293, -0.9732, 0.8891, 0.3489, -0.9565, 0.9076, 0.5397, -0.4631, 1.1251, 0.5212, -0.6131, 0.8546, 0.5438, -0.1712, 1.0096, 0.5185, -0.7164, 1.1251, 0.5212, -0.6131, 0.9076, 0.5397, -0.4631, 1.0096, 0.5185, -0.7164, 0.9076, 0.5397, -0.4631, 0.79, 0.5296, -0.6689, 0.8891, 0.3489, -0.9565, 0.9825, 0.0036, -0.9999, 0.9635, 0.3515, -0.9908, 1.0914, 0.507, -0.8002, 1.1251, 0.5212, -0.6131, 1.0096, 0.5185, -0.7164, 1.0914, 0.507, -0.8002, 0.8873, 0.4459, -0.9006, 1.0445, 0.4325, -0.9294, 1.1815, 0.4711, -0.0837, 1.0203, 0.5266, -0.0512, 1.1251, 0.5212, -0.6131, 1.1251, 0.5212, -0.6131, 1.1835, 0.494, -0.5081, 1.1815, 0.4711, -0.0837, 1.1835, 0.494, -0.5081, 1.1251, 0.5212, -0.6131, 1.0914, 0.507, -0.8002, 1.1859, 0.443, -0.7635, 1.1835, 0.494, -0.5081, 1.0914, 0.507, -0.8002, 1.1718, 0.2925, -0.8481, 1.1391, 0.3561, -0.9139, 1.1691, 0.1347, -0.858, 1.1859, 0.443, -0.7635, 1.0914, 0.507, -0.8002, 1.1343, 0.4344, -0.8753, 1.2432, 0.4333, -0.4086, 1.1859, 0.443, -0.7635, 1.2791, 0.3581, -0.4085, 1.2102, 0.3578, -0.7839, 1.2791, 0.3581, -0.4085, 1.1859, 0.443, -0.7635, 1.2102, 0.3578, -0.7839, 1.2506, 0.1241, -0.7553, 1.2959, 0.2551, -0.4509, 1.2131, 0.1788, -0.826, 1.193, -0.0585, -0.83, 1.2506, 0.1241, -0.7553, 1.1691, 0.1347, -0.858, 1.2131, 0.1788, -0.826, 1.1718, 0.2925, -0.8481, 1.3109, 0.2266, -0.1268, 1.3149, -0.1764, -0.0503, 1.2945, 0.2057, -0.0042, 1.2432, 0.4333, -0.4086, 1.303, 0.2778, -0.2773, 1.2694, 0.372, -0.0313, 1.303, 0.2778, -0.2773, 1.3255, -0.2178, -0.2836, 1.3109, 0.2266, -0.1268, 1.303, 0.2778, -0.2773, 1.2432, 0.4333, -0.4086, 1.2814, 0.3157, -0.3308, 1.2506, 0.1241, -0.7553, 1.2607, -0.0334, -0.7456, 1.2959, 0.2551, -0.4509, 1.2607, -0.0334, -0.7456, 1.3256, -0.2336, -0.4422, 1.2959, 0.2551, -0.4509)

[sub_resource type="BoxShape3D" id="BoxShape3D_ovjcw"]
size = Vector3(4, 1, 4)

[sub_resource type="StandardMaterial3D" id="StandardMaterial3D_l5dmo"]
albedo_color = Color(0.278431, 0.278431, 0.278431, 1)

[sub_resource type="TorusMesh" id="TorusMesh_p72g8"]
material = SubResource("StandardMaterial3D_l5dmo")
inner_radius = 0.1
outer_radius = 0.2
rings = 12
ring_segments = 12

[node name="SynthStation" type="Node3D"]
script = ExtResource("1_l3dxa")

[node name="SynthStation" parent="." instance=ExtResource("2_qty8e")]
transform = Transform3D(1, 0, 0, 0, 1, 0, 0, 0, 1, 0, 0, 1)

[node name="Cylinder" parent="SynthStation" index="0"]
surface_material_override/0 = ExtResource("3_dp2pf")

[node name="Cylinder002" parent="SynthStation" index="2"]
surface_material_override/0 = ExtResource("3_dp2pf")

[node name="Rock lp" parent="SynthStation" index="4"]
surface_material_override/0 = SubResource("StandardMaterial3D_7mu2c")

[node name="StaticBody3D" type="StaticBody3D" parent="SynthStation/Rock lp" index="0"]
visible = false

[node name="CollisionShape3D" type="CollisionShape3D" parent="SynthStation/Rock lp/StaticBody3D"]
shape = SubResource("ConcavePolygonShape3D_a4o0v")

[node name="Area3d" type="Area3D" parent="."]
collision_mask = 2

[node name="CollisionShape3d" type="CollisionShape3D" parent="Area3d"]
transform = Transform3D(1, 0, 0, 0, 1, 0, 0, 0, 1, 0, 0, 2)
shape = SubResource("BoxShape3D_ovjcw")

[node name="Label3d" type="Label3D" parent="."]
transform = Transform3D(1, 0, 0, 0, 1, 0, 0, 0, 1, 0.2, 2, 1.8)
billboard = 1
text = "E - Synthesis"
font_size = 64

[node name="GPUParticles3D" type="CPUParticles3D" parent="."]
transform = Transform3D(1, 0, 0, 0, 1, 0, 0, 0, 1, 0.0408921, 1.95002, -0.0227184)
amount = 4
lifetime = 0.5
fixed_fps = 30
mesh = SubResource("TorusMesh_p72g8")
direction = Vector3(0, -1, 0)

[connection signal="body_entered" from="Area3d" to="." method="OnBodyEntered"]
[connection signal="body_exited" from="Area3d" to="." method="OnBodyExited"]

[editable path="SynthStation"]
