# Blender 3.3.0 MTL File: 'None'
# www.blender.org

newmtl Material
Ns 39.999996
Ka 1.000000 1.000000 1.000000
Kd 0.066968 0.354485 0.107043
Ks 0.300000 0.300000 0.300000
Ke 0.000000 0.000000 0.000000
Ni 1.450000
d 1.000000
illum 2

newmtl Material.001
Ns 90.000000
Ka 1.000000 1.000000 1.000000
Kd 0.236479 0.059854 0.021844
Ks 0.300000 0.300000 0.300000
Ke 0.000000 0.000000 0.000000
Ni 1.450000
d 1.000000
illum 2
