# Blender 3.3.0
# www.blender.org
mtllib Field_Edge_1.mtl
o Cube.001
v 36.624157 2.375260 -12.555906
v 37.922550 -0.736588 -11.930624
v 33.832813 4.133626 -11.183363
v 39.472542 -2.940185 -9.443911
v 34.964512 1.914374 -13.043819
v 37.597424 -3.478149 -9.596682
v 32.216938 -2.193755 -11.259979
v 26.126316 1.354062 -11.809717
v 34.334747 -3.350312 -8.952335
v 27.430515 2.962324 -11.548809
v 35.352203 -3.275756 -6.218676
v 26.302923 -1.512209 -10.640335
v 30.313427 -3.039885 -10.102365
v 29.852123 -3.243536 -8.456318
v 23.220268 0.194072 -8.524248
v 22.576584 2.474189 -7.903975
v 28.467524 -1.843791 -4.275465
v 39.937366 1.449589 -10.993176
v 40.727837 -1.100424 -10.091576
v 43.747253 1.394732 -6.599791
v 43.231792 4.444894 -5.575029
v 46.850182 0.898760 -2.653369
v 42.887787 -2.374718 -3.893637
v 43.032970 -1.806708 -5.277636
v 45.151264 -1.802465 -2.664479
v 37.670189 -3.418069 -6.550858
v 42.195679 -2.749442 -2.191092
v 43.847363 -2.998631 1.529673
v 37.083042 -2.624933 -3.649399
v 35.164524 -1.651115 -1.773931
v 42.640583 -1.822592 4.808132
v 27.815228 -1.515412 -3.359112
v 23.785234 3.645725 -3.848688
v 23.502428 1.828973 -4.998362
v 23.716734 1.580812 -2.998154
v 26.369831 -1.517792 8.683182
v 23.053516 2.698802 -1.207640
v 25.922527 -1.144565 0.078802
v 22.773388 0.793647 0.235689
v 22.465860 3.590320 0.295838
v 24.676792 -1.654175 3.494571
v 20.679958 -2.278087 7.236199
v 37.219879 -1.338951 3.057631
v 40.092709 -0.954963 7.805602
v 37.207840 -1.413828 10.886813
v 28.906706 4.369502 -10.565191
v 31.992554 7.830819 -5.625055
v 24.806166 3.834874 -9.000149
v 38.503769 7.328834 -5.676298
v 44.255760 7.125810 -2.872601
v 37.849190 8.298679 -2.944654
v 45.051773 8.121132 0.400602
v 35.214314 9.325987 -1.481472
v 41.135056 8.470678 4.007143
v 27.877464 8.231968 -4.196966
v 29.509790 9.210669 -1.619707
v 25.201866 5.805800 -5.117517
v 25.521257 7.935604 -0.591470
v 25.741947 9.092879 2.115796
v 22.114819 8.178592 5.437147
v 37.657558 9.120125 7.522621
v 34.976955 9.356531 14.783587
v 48.791359 1.940907 -0.897498
v 57.154129 -1.596362 6.888403
v 50.910542 -1.796067 2.038765
v 54.135571 -2.877309 4.604712
v 48.465065 -3.218635 1.623159
v 56.368351 -4.049782 8.175299
v 52.010593 -5.384791 5.421582
v 46.148216 -3.686758 1.702496
v 51.215668 -5.324375 6.868828
v 47.784756 -4.474673 5.801787
v 61.558861 1.369349 12.428179
v 61.558712 3.352450 13.310495
v 61.884827 -1.287689 13.282948
v 55.539032 -4.977462 9.653805
v 62.066185 -2.006915 17.573174
v 56.164963 -4.565613 12.358618
v 61.473877 -1.586854 19.948895
v 64.292725 1.926489 18.146835
v 63.944183 -0.152908 17.680069
v 44.372238 -1.399844 10.471157
v 46.270081 -1.146136 13.543880
v 44.619663 -1.499156 15.311097
v 43.925594 -1.718107 19.777264
v 57.507874 -1.303118 19.264305
v 50.820641 -2.155515 15.827330
v 52.852283 -0.924435 19.527576
v 54.763004 -1.034588 18.861404
v 56.794769 2.163919 18.456837
v 47.961136 -2.808128 17.974934
v 51.327694 2.207978 18.931807
v 51.127895 -1.491541 22.183569
v 49.992290 2.652637 20.494648
v 48.048973 -3.185991 21.435249
v 49.764091 -2.424232 22.733448
v 49.967300 -0.825000 26.527012
v 61.890457 -0.526061 20.663380
v 61.959896 2.238579 20.799587
v 50.480141 5.859348 2.123947
v 56.358688 3.205813 6.722458
v 50.651917 7.496817 4.124004
v 50.495319 8.436773 6.920238
v 45.095192 9.144283 7.395482
v 59.023071 6.440472 13.883878
v 58.625633 7.603541 16.359705
v 62.282928 4.686034 17.683186
v 54.852608 7.965703 12.989054
v 54.462410 7.522071 15.500813
v 60.832817 5.247157 19.496094
v 50.334743 8.986681 11.076124
v 58.889610 7.186631 18.554825
v 49.979649 6.645502 16.936810
v 52.415958 7.268179 15.326256
v 57.780952 6.763375 18.589466
v 50.532848 4.533807 18.608360
v 53.078377 4.599318 17.443502
v 47.207878 6.768939 22.430622
v 48.325462 5.240727 23.277260
v 18.946753 1.257417 6.238064
v 20.595402 -0.479637 3.966579
v 19.145765 -1.935423 7.447454
v 18.131866 -2.204876 13.194771
v 16.505810 1.278515 9.828582
v 16.422062 -1.001527 10.666970
v 17.104551 -1.840205 11.539599
v 11.675953 0.506237 14.335287
v 13.167311 -1.964860 14.164640
v 23.608276 -1.481917 15.555580
v 25.883217 -2.061617 19.502470
v 12.705254 3.008122 13.062270
v 12.385807 -1.814389 15.912440
v 15.465237 -3.243238 16.097294
v 13.434481 -2.614882 17.843765
v 12.544859 5.638430 15.295924
v 11.221107 0.485798 16.684170
v 16.263870 -2.841254 22.198919
v 11.626467 1.373767 18.030025
v 13.650791 -1.480143 20.734346
v 13.198202 2.090691 20.486267
v 26.964693 -3.519459 25.266220
v 18.782349 -3.547079 20.735172
v 22.572258 -2.099843 28.235329
v 15.989981 -0.934115 24.000202
v 16.815342 2.221348 24.249420
v 21.459808 0.498912 27.794027
v 21.094471 8.587521 9.501221
v 20.757839 8.032991 8.544031
v 18.850079 8.762044 12.651415
v 17.871170 7.918618 11.704083
v 15.507130 8.723400 13.849656
v 22.729458 9.229719 14.497663
v 20.016655 9.987087 18.026512
v 15.695473 9.497770 15.277048
v 16.622005 9.266515 18.123482
v 26.332424 8.840415 24.408800
v 20.442598 9.575481 20.722313
v 17.762276 6.907217 22.398556
v 14.708025 7.290725 18.736588
v 21.981682 6.382406 25.372883
v 27.822327 6.423555 26.835882
v 43.371517 -1.471617 26.311237
v 40.031906 -1.565170 27.823360
v 32.774921 -2.687928 28.250847
v 37.725067 -2.255502 31.141195
v 46.364449 -2.243858 23.718258
v 49.487148 1.312355 27.747581
v 48.635807 -0.738493 28.529667
v 49.567936 1.672260 30.290186
v 48.530472 -0.320947 29.556427
v 49.826508 0.016239 32.913448
v 42.596901 -0.960069 29.688044
v 48.236301 -0.228858 34.228195
v 47.383938 1.941168 34.413612
v 43.674496 3.940737 35.265114
v 42.909241 0.052558 35.587700
v 50.112160 1.868706 32.160336
v 48.014458 -0.832800 33.052116
v 48.744202 3.526065 32.419540
v 24.989435 -3.296206 27.605141
v 32.556919 -2.342953 31.164240
v 30.306885 -1.521219 32.116978
v 24.031693 -2.886687 28.093847
v 29.307806 -1.967427 30.735865
v 26.088127 -1.921464 29.362453
v 28.559633 -0.792982 30.621971
v 30.873543 -1.352563 33.340050
v 25.591816 -0.162117 28.843714
v 32.216782 -2.290641 36.816864
v 31.084414 0.067659 33.483055
v 33.258690 1.806638 37.825073
v 32.506935 0.107223 37.637779
v 38.870800 -1.696667 34.363300
v 44.128723 -0.889541 33.448570
v 40.755466 -0.172088 36.628979
v 41.010998 4.202991 36.877823
v 37.684696 1.407978 39.518585
v 34.130074 -2.568437 37.973862
v 37.449230 -1.016171 38.958801
v 37.414452 3.114366 39.201996
v 33.924316 0.188411 38.770805
v 41.085213 9.084560 22.478851
v 32.788025 9.114174 25.362808
v 26.936562 9.327399 22.405910
v 38.599419 8.019863 28.757315
v 46.214417 6.490835 28.900639
v 41.405300 6.882500 29.886929
v 42.724030 6.396578 32.343513
v 34.171844 8.401794 27.799667
v 30.446609 6.254326 28.390623
v 32.686607 6.040144 30.982237
v 39.537182 7.241300 33.964355
v 37.749138 8.033662 32.982506
v 37.068695 6.628201 35.552788
v 34.648296 5.776620 35.338013
v 35.459789 3.399002 38.061600
v 35.459789 3.399002 38.061600
v 35.459789 3.399002 38.061600
v 35.459789 3.399002 38.061600
v 35.588326 3.334987 38.187626
v 35.588326 3.334987 38.187626
v 35.588326 3.334987 38.187626
v 35.588326 3.334987 38.187626
v 35.820457 3.241403 38.392582
v 35.820457 3.241403 38.392582
v 35.820457 3.241403 38.392582
v 35.820457 3.241403 38.392582
v 35.459789 3.399002 38.061600
v 35.459789 3.399002 38.061600
v 35.588326 3.334987 38.187626
v 35.588326 3.334987 38.187626
v 35.588326 3.334987 38.187626
v 35.588326 3.334987 38.187626
v 35.820457 3.241403 38.392582
v 35.820457 3.241403 38.392582
v 35.820457 3.241403 38.392582
v 35.820457 3.241403 38.392582
v 35.459789 3.399002 38.061600
v 35.459789 3.399002 38.061600
vn 0.4256 -0.0042 -0.9049
vn -0.0074 -0.3941 -0.9190
vn 0.0777 -0.6516 -0.7546
vn -0.0688 0.6201 -0.7815
vn -0.1082 -0.9250 -0.3643
vn -0.0383 -0.9903 -0.1333
vn -0.1193 -0.9527 0.2795
vn -0.5007 0.5185 -0.6931
vn -0.6503 -0.3210 -0.6885
vn -0.4601 -0.8867 0.0448
vn -0.7438 -0.0283 -0.6679
vn 0.4116 -0.5394 -0.7346
vn 0.6776 -0.6080 -0.4137
vn 0.8172 -0.3661 -0.4450
vn 0.7243 -0.3215 -0.6099
vn 0.5591 -0.7860 -0.2639
vn 0.7131 -0.3976 -0.5774
vn 0.6837 -0.4276 -0.5913
vn 0.2806 -0.9569 -0.0752
vn 0.3896 -0.8657 -0.3144
vn -0.0351 -0.9992 0.0205
vn 0.4832 -0.6488 -0.5878
vn -0.0544 -0.9974 0.0475
vn -0.0934 -0.9650 0.2449
vn -0.0221 -0.9655 0.2595
vn -0.1083 -0.9439 0.3120
vn -0.1975 -0.9620 0.1885
vn -0.1104 -0.9238 0.3667
vn -0.0793 -0.9550 0.2858
vn -0.9208 -0.3204 0.2223
vn -0.5786 -0.8063 -0.1229
vn -0.9545 -0.0385 0.2956
vn -0.6043 -0.7960 -0.0340
vn -0.5979 -0.7626 -0.2469
vn -0.8428 -0.5377 0.0236
vn 0.0592 -0.9982 0.0069
vn -0.7568 -0.5471 -0.3576
vn -0.9506 -0.0862 -0.2983
vn -0.5051 -0.7931 -0.3404
vn -0.2884 -0.8421 -0.4557
vn 0.0094 -1.0000 0.0009
vn 0.0079 -0.9999 0.0084
vn 0.1878 0.7720 -0.6072
vn -0.0307 0.8275 -0.5606
vn -0.3204 0.7451 -0.5850
vn 0.3227 0.7241 -0.6095
vn 0.5699 0.4651 -0.6774
vn 0.1925 0.9248 -0.3280
vn 0.0704 0.9452 -0.3187
vn 0.1192 0.9007 -0.4177
vn -0.0105 0.9370 -0.3492
vn -0.5718 0.7536 -0.3243
vn -0.8129 0.5775 0.0755
vn -0.2376 0.9485 -0.2097
vn -0.8661 0.4731 -0.1615
vn -0.9463 -0.1132 -0.3028
vn -0.5451 0.7861 -0.2916
vn -0.7701 0.4489 -0.4532
vn -0.4006 0.8962 -0.1907
vn 0.6904 0.3325 -0.6425
vn 0.5886 -0.3672 -0.7202
vn 0.6371 -0.1554 -0.7549
vn 0.6990 0.0913 -0.7093
vn 0.1411 -0.7976 -0.5865
vn -0.2904 -0.9547 0.0650
vn -0.2180 -0.9708 -0.0996
vn -0.2166 -0.9731 -0.0784
vn -0.2808 -0.9571 -0.0718
vn -0.3249 -0.8814 0.3429
vn 0.6466 -0.5064 -0.5706
vn 0.7113 -0.4914 -0.5025
vn 0.7535 0.2673 -0.6007
vn 0.4413 -0.8505 -0.2861
vn 0.5702 -0.8009 -0.1827
vn 0.8773 0.1951 -0.4384
vn 0.6645 -0.6897 0.2876
vn 0.8112 -0.2542 0.5266
vn 0.2161 -0.9508 0.2220
vn 0.7469 -0.0514 0.6629
vn -0.2386 -0.9446 0.2253
vn -0.0795 -0.9606 -0.2662
vn -0.0069 -0.9999 -0.0078
vn -0.3416 -0.8956 0.2850
vn -0.1140 -0.8895 0.4424
vn 0.0853 0.9931 0.0805
vn -0.1300 0.2053 0.9700
vn 0.3205 0.3202 0.8915
vn 0.3176 -0.9382 0.1378
vn 0.3278 0.3280 0.8860
vn 0.7035 0.4474 0.5522
vn 0.6116 -0.7552 0.2358
vn 0.6161 -0.7371 0.2777
vn 0.9116 0.3425 0.2275
vn -0.2975 -0.0395 0.9539
vn -0.4113 0.1257 0.9028
vn -0.4130 0.0624 0.9086
vn 0.6169 0.4293 -0.6596
vn 0.6856 0.2356 -0.6888
vn 0.6646 0.2551 -0.7023
vn 0.2941 0.9108 -0.2897
vn 0.1180 0.9850 -0.1258
vn 0.6510 0.5473 -0.5260
vn 0.6335 0.6088 -0.4775
vn 0.4552 0.8514 -0.2607
vn 0.2378 0.9575 -0.1633
vn 0.4689 0.8260 -0.3128
vn 0.6565 0.7178 -0.2318
vn -0.0038 0.9994 -0.0340
vn 0.0274 0.9995 0.0136
vn -0.0590 0.9794 0.1931
vn -0.2923 0.8075 0.5124
vn -0.2476 0.0252 0.9685
vn 0.3965 0.2580 0.8810
vn 0.4465 0.8213 0.3551
vn 0.7610 0.3371 0.5543
vn 0.6698 0.6687 0.3229
vn -0.2534 -0.8503 -0.4612
vn -0.7419 -0.4499 -0.4971
vn -0.8261 -0.0500 -0.5613
vn -0.2291 -0.9691 -0.0917
vn -0.2159 -0.9731 -0.0804
vn -0.5859 -0.7624 -0.2745
vn -0.6705 -0.0984 -0.7354
vn 0.0857 -0.9605 -0.2648
vn -0.6404 -0.3389 -0.6892
vn -0.9222 0.2162 -0.3208
vn -0.4477 -0.8855 -0.1239
vn -0.2206 -0.9709 0.0928
vn -0.0336 -0.9972 0.0668
vn -0.1646 -0.9690 0.1841
vn -0.5763 -0.7452 0.3356
vn -0.4791 -0.8475 -0.2287
vn -0.7168 0.1334 0.6844
vn -0.5505 -0.0948 0.8295
vn -0.8597 0.3505 -0.3715
vn -0.7634 0.3815 -0.5212
vn -0.4063 0.8495 -0.3365
vn -0.5704 0.3298 -0.7522
vn -0.1991 0.8250 -0.5288
vn -0.0100 0.9999 -0.0135
vn -0.0698 0.9921 -0.1047
vn -0.0132 0.9755 -0.2195
vn 0.1530 0.9838 -0.0935
vn 0.0359 0.9727 -0.2295
vn -0.7149 0.4268 -0.5539
vn -0.0014 0.9885 0.1512
vn -0.0730 0.9739 0.2148
vn -0.0224 0.9730 0.2298
vn -0.2859 0.7432 0.6049
vn -0.3377 0.7201 0.6062
vn -0.4929 0.4040 0.7706
vn 0.0018 -1.0000 -0.0092
vn 0.1400 -0.9736 -0.1800
vn 0.2773 -0.9178 -0.2842
vn 0.9247 0.3710 0.0857
vn 0.0088 -0.9555 0.2948
vn -0.2363 -0.9715 0.0166
vn -0.0003 -0.9894 -0.1449
vn 0.1065 -0.9940 -0.0247
vn 0.2995 -0.9484 -0.1042
vn 0.0570 -0.9013 0.4294
vn 0.4489 0.5247 0.7233
vn 0.2244 -0.9734 -0.0465
vn 0.2487 0.0314 0.9681
vn 0.2267 0.0058 0.9739
vn 0.8961 -0.3853 -0.2203
vn 0.4192 -0.8373 0.3509
vn 0.5949 0.3803 0.7081
vn 0.0173 -0.9928 0.1188
vn -0.1058 -0.8545 0.5086
vn -0.3731 -0.3397 0.8633
vn -0.1682 0.3879 0.9062
vn -0.4924 0.1155 0.8627
vn -0.6135 -0.6924 0.3797
vn -0.7559 0.0465 0.6531
vn -0.9336 -0.0096 0.3581
vn 0.1694 -0.9794 0.1096
vn 0.2087 -0.8829 0.4205
vn 0.5155 -0.0304 0.8563
vn 0.6606 -0.0810 0.7463
vn -0.1440 -0.9896 0.0005
vn -0.1478 -0.2848 0.9471
vn -0.1241 -0.2118 0.9694
vn -0.5266 -0.2721 0.8054
vn 0.0170 0.9996 0.0218
vn 0.0709 0.9784 0.1940
vn 0.3873 0.8232 0.4152
vn 0.3598 0.7686 0.5290
vn 0.3513 0.9338 0.0676
vn 0.3147 0.9490 0.0188
vn -0.0880 0.9415 0.3252
vn 0.3268 0.9320 0.1569
vn 0.3876 0.7639 0.5160
vn 0.4563 0.7212 0.5213
vn -0.3367 0.8608 0.3816
vn -0.0000 1.0000 -0.0000
vn -0.4149 0.5829 0.6986
vn 0.2984 -0.0668 -0.9521
vn 0.0405 0.6540 -0.7554
vn 0.2441 -0.6452 -0.7239
vn -0.1096 -0.3333 -0.9364
vn -0.1501 0.2757 -0.9495
vn 0.0772 -0.8611 -0.5025
vn -0.1397 -0.3814 -0.9138
vn -0.1531 -0.6608 -0.7348
vn -0.0200 -0.9992 0.0347
vn -0.3243 -0.9235 -0.2051
vn -0.5980 0.4403 -0.6697
vn -0.4566 -0.8781 0.1428
vn 0.5316 -0.1311 -0.8368
vn 0.7555 0.0026 -0.6551
vn 0.7157 0.3281 -0.6165
vn 0.4696 0.6201 -0.6284
vn 0.1888 -0.9819 0.0149
vn 0.2488 -0.9622 -0.1107
vn -0.0060 -0.9979 -0.0642
vn -0.1733 -0.9456 0.2754
vn -0.2943 -0.9375 0.1858
vn -0.5853 -0.7167 0.3792
vn -0.9512 0.2566 -0.1715
vn -0.4798 -0.7416 -0.4689
vn 0.0247 -0.9900 -0.1387
vn -0.8757 0.1789 -0.4484
vn -0.7723 -0.3075 -0.5558
vn -0.8521 -0.1549 -0.5000
vn -0.0355 -0.9962 0.0795
vn -0.1400 -0.9765 0.1637
vn 0.0253 -0.9996 -0.0095
vn 0.1475 -0.9890 -0.0092
vn -0.0686 0.6189 -0.7825
vn 0.0605 0.8402 -0.5388
vn -0.3053 0.7915 -0.5294
vn -0.1010 0.8433 -0.5278
vn -0.0207 0.9455 -0.3251
vn 0.1606 0.9416 -0.2958
vn 0.1770 0.9266 -0.3319
vn 0.1159 0.9928 0.0297
vn -0.6020 0.7351 -0.3118
vn -0.5760 0.7545 -0.3144
vn -0.8150 0.5215 -0.2525
vn -0.4886 0.8160 -0.3090
vn 0.1625 0.9865 -0.0215
vn -0.0209 0.9994 0.0285
vn -0.0114 0.9997 0.0200
vn 0.7054 -0.1451 -0.6938
vn 0.5191 -0.3263 -0.7900
vn 0.4795 -0.6530 -0.5863
vn 0.4241 -0.5104 -0.7481
vn 0.1770 -0.9303 -0.3212
vn 0.4073 -0.5761 -0.7087
vn 0.5416 -0.6375 -0.5480
vn -0.0142 -0.9753 -0.2204
vn -0.3818 -0.9057 0.1844
vn -0.5107 -0.8406 0.1803
vn 0.7514 0.1019 -0.6520
vn 0.8027 -0.0911 -0.5894
vn 0.0393 -0.9972 0.0632
vn 0.5629 -0.8110 -0.1597
vn -0.0207 -0.9877 0.1552
vn 0.3512 -0.9343 0.0610
vn -0.2107 -0.9245 0.3177
vn -0.3518 -0.8873 0.2983
vn 0.9098 -0.0603 -0.4105
vn 0.9029 -0.0272 -0.4290
vn 0.6992 -0.6997 -0.1469
vn 0.7955 0.5301 -0.2934
vn 0.6822 0.4905 0.5422
vn 0.7122 -0.5625 0.4199
vn -0.1812 -0.9751 0.1282
vn 0.0819 -0.9893 -0.1211
vn 0.0493 -0.9936 -0.1018
vn -0.2021 -0.9761 -0.0793
vn -0.1401 -0.8845 0.4451
vn -0.0569 -0.9376 0.3431
vn -0.1230 0.2010 0.9718
vn -0.0672 -0.9262 -0.3709
vn 0.3874 -0.9154 -0.1098
vn 0.7464 0.4162 0.5193
vn -0.2981 -0.9500 -0.0929
vn -0.2993 -0.9493 -0.0961
vn 0.4190 -0.9077 -0.0210
vn 0.1824 -0.9340 0.3071
vn 0.4401 -0.8356 0.3287
vn -0.3713 -0.9224 0.1067
vn -0.1819 -0.4992 0.8472
vn 0.5667 0.6130 -0.5505
vn 0.3287 0.8784 -0.3470
vn 0.6528 0.5577 -0.5127
vn -0.0447 0.9885 -0.1443
vn 0.1160 0.9827 -0.1445
vn 0.7054 0.6369 -0.3111
vn 0.2656 0.9570 -0.1164
vn 0.6043 0.7929 0.0779
vn 0.0256 0.9997 0.0064
vn 0.6152 0.7436 0.2620
vn -0.0064 0.9822 -0.1878
vn 0.0647 0.9357 0.3467
vn -0.1345 0.9792 0.1521
vn -0.1412 0.5935 0.7923
vn -0.4454 0.6323 0.6339
vn 0.0082 0.9284 0.3714
vn 0.3038 0.6390 0.7067
vn 0.3071 0.6371 0.7070
vn 0.3505 0.9235 0.1561
vn 0.8241 0.4682 0.3187
vn 0.9027 0.1463 0.4046
vn -0.1038 0.3482 0.9317
vn -0.0931 0.3663 0.9258
vn -0.8314 -0.1646 -0.5307
vn -0.6404 -0.2442 -0.7282
vn -0.3185 -0.7955 -0.5155
vn -0.2081 -0.9113 -0.3554
vn 0.1371 -0.9904 -0.0187
vn 0.1167 -0.9912 0.0621
vn 0.1098 -0.9927 0.0493
vn 0.2418 -0.9303 -0.2760
vn -0.8193 -0.4719 -0.3257
vn -0.9627 0.1976 -0.1847
vn -0.9007 -0.3964 -0.1779
vn -0.3948 -0.9092 -0.1320
vn -0.9557 0.2743 0.1069
vn -0.8302 -0.5018 0.2428
vn -0.8294 -0.4961 0.2568
vn -0.8798 -0.2295 0.4164
vn -0.8314 -0.0671 0.5516
vn -0.8066 -0.0614 0.5880
vn 0.2456 -0.9278 -0.2808
vn 0.1457 -0.9664 -0.2119
vn 0.0651 -0.9916 -0.1115
vn -0.2184 -0.9714 0.0926
vn -0.3091 -0.8496 0.4274
vn -0.6062 -0.5904 0.5329
vn -0.4950 -0.6331 0.5951
vn -0.6719 0.3856 0.6324
vn -0.4726 0.3709 0.7994
vn -0.5833 0.0888 0.8074
vn -0.8632 0.3534 -0.3605
vn -0.6054 0.7623 -0.2287
vn -0.4107 0.8441 -0.3446
vn -0.7045 0.3233 -0.6318
vn -0.5061 0.3563 -0.7854
vn -0.1722 0.8752 -0.4521
vn 0.0107 0.9995 -0.0286
vn -0.2013 0.9777 -0.0598
vn -0.7537 0.6142 -0.2337
vn -0.7616 0.6226 0.1798
vn -0.6487 0.7119 0.2690
vn -0.8127 0.4283 0.3950
vn -0.8562 0.3699 0.3606
vn -0.2015 0.9688 0.1443
vn -0.1994 0.9635 0.1786
vn -0.4153 0.7451 0.5219
vn -0.5311 0.6739 0.5136
vn -0.6815 0.4033 0.6106
vn 0.0468 -0.9980 0.0416
vn 0.1754 -0.9545 -0.2413
vn 0.1461 -0.9839 -0.1031
vn 0.9740 0.2178 -0.0618
vn 0.9661 0.0763 0.2465
vn -0.0776 -0.9405 0.3309
vn 0.8230 -0.1308 0.5528
vn 0.9280 -0.3021 0.2180
vn 0.8804 -0.4726 0.0389
vn 0.0677 -0.9840 0.1646
vn 0.1073 -0.9171 0.3840
vn 0.7195 0.6371 -0.2763
vn 0.4188 -0.9053 -0.0707
vn 0.1056 -0.9793 0.1726
vn 0.0666 -0.8926 0.4458
vn 0.9068 -0.2711 -0.3229
vn 0.6260 0.2089 0.7513
vn 0.6114 0.1742 0.7719
vn 0.0647 -0.9867 0.1489
vn 0.0456 -0.9406 0.3363
vn -0.1281 -0.9860 0.1072
vn -0.1575 -0.9007 0.4049
vn -0.6878 -0.3781 0.6197
vn -0.2263 -0.5627 0.7950
vn -0.4107 0.3903 0.8240
vn -0.4539 0.3772 0.8073
vn -0.3476 -0.9376 -0.0122
vn -0.3892 -0.1600 0.9071
vn -0.9028 0.1704 0.3948
vn -0.3065 0.0303 0.9514
vn -0.2064 0.2227 0.9528
vn -0.9409 0.1074 0.3211
vn -0.8843 0.3582 0.2994
vn 0.3391 -0.7743 0.5343
vn 0.4405 -0.0766 0.8945
vn 0.4040 -0.8785 0.2551
vn 0.5993 -0.2349 0.7653
vn 0.0167 -0.9992 -0.0370
vn 0.2405 -0.9672 0.0822
vn 0.4772 0.2328 0.8474
vn 0.3510 -0.9044 0.2425
vn -0.3904 0.3395 0.8558
vn -0.2368 0.1408 0.9613
vn -0.6062 -0.1910 0.7720
vn -0.6196 0.1902 0.7615
vn -0.0102 0.9999 -0.0069
vn 0.0169 0.9991 0.0385
vn 0.0253 0.9633 0.2672
vn 0.7591 0.6348 0.1439
vn 0.3528 0.9309 0.0942
vn 0.6938 0.7130 0.1019
vn 0.9252 0.3783 0.0286
vn 0.1870 0.9536 0.2358
vn 0.1660 0.8702 0.4639
vn 0.1082 0.9847 0.1367
vn 0.0830 0.9965 0.0135
vn -0.3824 0.8648 0.3253
vn -0.2676 0.6580 0.7039
vn -0.4037 0.8148 0.4162
vn -0.5686 0.7650 0.3024
vn -0.4160 0.5038 0.7570
vn -0.1921 0.6339 0.7492
vn -0.2296 0.3542 0.9066
vn -0.6840 0.3803 0.6226
vn -0.7397 0.4190 0.5267
vn -0.8835 0.3616 0.2976
vn 0.1073 0.8601 0.4987
vn 0.2326 0.7296 0.6431
vn 0.2149 0.7136 0.6668
vn -0.7734 0.5082 0.3790
vn -0.2971 0.6736 0.6768
vn 0.7123 0.5842 0.3890
vn -0.0534 0.9847 0.1656
s 0
usemtl Material.001
f 18//1 2//1 1//1
f 2//2 7//2 5//2
f 7//3 2//3 6//3
f 3//4 5//4 10//4
f 9//5 7//5 6//5
f 14//6 13//6 9//6
f 17//7 14//7 11//7
f 10//8 8//8 48//8
f 8//9 12//9 15//9
f 14//10 15//10 12//10
f 15//11 16//11 8//11
f 19//12 4//12 2//12
f 19//13 24//13 4//13
f 24//14 19//14 20//14
f 22//15 20//15 63//15
f 24//16 23//16 4//16
f 24//17 20//17 25//17
f 25//18 20//18 22//18
f 23//19 6//19 4//19
f 25//20 23//20 24//20
f 26//21 9//21 6//21
f 67//22 23//22 25//22
f 11//23 9//23 26//23
f 27//24 29//24 26//24
f 26//25 29//25 11//25
f 29//26 17//26 11//26
f 43//27 29//27 28//27
f 30//28 17//28 29//28
f 32//29 17//29 30//29
f 16//30 15//30 34//30
f 17//31 32//31 34//31
f 33//32 16//32 34//32
f 32//33 35//33 34//33
f 32//34 38//34 35//34
f 37//35 34//35 35//35
f 41//36 32//36 36//36
f 32//37 41//37 38//37
f 35//38 39//38 37//38
f 38//39 39//39 35//39
f 121//40 39//40 42//40
f 45//41 36//41 32//41
f 129//42 36//42 45//42
f 46//45 10//45 48//45
f 21//47 1//47 50//47
f 16//53 33//53 57//53
f 57//55 33//55 58//55
f 33//56 37//56 40//56
f 58//58 40//58 60//58
f 63//60 20//60 21//60
f 25//61 22//61 65//61
f 64//62 66//62 63//62
f 101//63 64//63 63//63
f 70//64 67//64 69//64
f 28//65 27//65 70//65
f 72//66 70//66 69//66
f 71//67 72//67 69//67
f 72//68 28//68 70//68
f 71//69 82//69 72//69
f 68//70 66//70 64//70
f 68//71 64//71 75//71
f 74//72 73//72 101//72
f 68//73 76//73 69//73
f 76//74 68//74 75//74
f 73//75 74//75 80//75
f 79//76 77//76 81//76
f 80//77 98//77 81//77
f 79//78 78//78 77//78
f 99//79 98//79 80//79
f 83//80 44//80 82//80
f 84//81 83//81 87//81
f 84//82 163//82 45//82
f 87//83 83//83 82//83
f 86//84 87//84 78//84
f 89//85 88//85 86//85
f 90//86 117//86 89//86
f 92//87 89//87 117//87
f 88//88 91//88 87//88
f 92//89 88//89 89//89
f 93//90 88//90 92//90
f 93//91 96//91 88//91
f 97//92 96//92 93//92
f 94//93 119//93 93//93
f 98//94 99//94 86//94
f 90//95 86//95 99//95
f 115//96 90//96 99//96
f 21//97 50//97 100//97
f 63//98 21//98 100//98
f 101//99 63//99 100//99
f 90//112 115//112 117//112
f 92//113 117//113 116//113
f 94//115 92//115 116//115
f 122//117 121//117 42//117
f 121//118 122//118 125//118
f 120//119 121//119 124//119
f 42//120 126//120 122//120
f 123//121 126//121 42//121
f 122//122 126//122 125//122
f 124//123 127//123 131//123
f 133//124 126//124 123//124
f 127//125 125//125 128//125
f 135//126 131//126 127//126
f 128//127 134//127 132//127
f 134//128 133//128 137//128
f 180//129 142//129 141//129
f 180//130 137//130 142//130
f 137//131 139//131 134//131
f 183//132 143//132 180//132
f 145//133 140//133 144//133
f 144//134 143//134 146//134
f 60//135 40//135 120//135
f 120//136 124//136 148//136
f 151//138 150//138 124//138
f 135//145 151//145 131//145
f 160//151 158//151 145//151
f 163//152 129//152 45//152
f 164//153 130//153 163//153
f 164//154 141//154 130//154
f 119//155 167//155 93//155
f 168//156 162//156 166//156
f 162//157 85//157 166//157
f 178//158 194//158 170//158
f 194//159 172//159 170//159
f 194//160 163//160 172//160
f 176//161 194//161 178//161
f 175//162 174//162 179//162
f 163//163 194//163 165//163
f 175//164 176//164 173//164
f 175//165 173//165 174//165
f 177//166 170//166 169//166
f 173//167 178//167 171//167
f 174//168 177//168 179//168
f 181//169 164//169 165//169
f 180//170 184//170 183//170
f 185//171 183//171 184//171
f 188//172 160//172 146//172
f 186//173 188//173 185//173
f 182//174 187//174 186//174
f 190//175 186//175 187//175
f 192//176 187//176 189//176
f 193//177 165//177 194//177
f 193//178 194//178 195//178
f 175//179 196//179 176//179
f 196//180 197//180 195//180
f 198//181 189//181 181//181
f 201//182 198//182 199//182
f 197//183 201//183 199//183
f 201//184 189//184 198//184
f 217//196 218//196 216//196
f 222//196 221//196 220//196
f 226//196 225//196 224//196
f 228//196 217//196 216//196
f 221//196 230//196 220//196
f 232//196 220//196 230//196
f 233//196 230//196 231//196
f 233//196 222//196 232//196
f 223//196 231//196 221//196
f 225//196 234//196 224//196
f 236//196 224//196 234//196
f 237//196 234//196 235//196
f 237//196 226//196 236//196
f 227//196 235//196 225//196
f 238//196 216//196 218//196
f 239//196 218//196 219//196
f 239//196 228//196 238//196
f 229//196 219//196 217//196
f 215//197 191//197 200//197
f 1//198 2//198 5//198
f 3//199 1//199 5//199
f 2//200 4//200 6//200
f 8//201 5//201 7//201
f 10//202 5//202 8//202
f 9//203 13//203 7//203
f 12//204 8//204 7//204
f 7//205 13//205 12//205
f 11//206 14//206 9//206
f 13//207 14//207 12//207
f 48//208 8//208 16//208
f 14//209 17//209 15//209
f 19//210 2//210 18//210
f 20//211 19//211 18//211
f 21//212 20//212 18//212
f 21//213 18//213 1//213
f 23//214 26//214 6//214
f 23//215 27//215 26//215
f 27//216 28//216 29//216
f 31//217 43//217 28//217
f 43//218 30//218 29//218
f 34//219 15//219 17//219
f 33//220 34//220 37//220
f 42//221 39//221 38//221
f 41//222 42//222 38//222
f 40//223 37//223 120//223
f 37//224 39//224 121//224
f 120//225 37//225 121//225
f 30//226 43//226 32//226
f 31//227 44//227 43//227
f 43//228 45//228 32//228
f 44//229 45//229 43//229
f 46//230 3//230 10//230
f 40//240 58//240 33//240
f 63//245 65//245 22//245
f 66//246 65//246 63//246
f 65//247 67//247 25//247
f 65//248 66//248 67//248
f 67//249 70//249 23//249
f 69//250 67//250 66//250
f 68//251 69//251 66//251
f 23//252 70//252 27//252
f 28//253 82//253 31//253
f 72//254 82//254 28//254
f 101//255 73//255 64//255
f 73//256 75//256 64//256
f 69//257 76//257 71//257
f 75//258 77//258 76//258
f 76//259 78//259 71//259
f 76//260 77//260 78//260
f 78//261 87//261 71//261
f 71//262 87//262 82//262
f 80//263 81//263 75//263
f 80//264 75//264 73//264
f 75//265 81//265 77//265
f 74//266 107//266 80//266
f 110//267 99//267 80//267
f 98//268 79//268 81//268
f 82//269 44//269 31//269
f 83//270 84//270 44//270
f 44//271 84//271 45//271
f 85//272 163//272 84//272
f 79//273 86//273 78//273
f 86//274 88//274 87//274
f 90//275 89//275 86//275
f 87//276 91//276 84//276
f 88//277 95//277 91//277
f 92//278 94//278 93//278
f 85//279 84//279 91//279
f 95//280 85//280 91//280
f 88//281 96//281 95//281
f 96//282 168//282 95//282
f 96//283 97//283 168//283
f 95//284 166//284 85//284
f 79//285 98//285 86//285
f 119//306 94//306 116//306
f 115//308 99//308 110//308
f 125//309 124//309 121//309
f 124//310 125//310 127//310
f 128//311 125//311 126//311
f 133//312 128//312 126//312
f 36//313 42//313 41//313
f 36//314 123//314 42//314
f 36//315 129//315 123//315
f 129//316 130//316 123//316
f 127//317 128//317 132//317
f 136//318 135//318 127//318
f 132//319 136//319 127//319
f 133//320 134//320 128//320
f 138//321 135//321 136//321
f 136//322 132//322 134//322
f 134//323 139//323 136//323
f 139//324 138//324 136//324
f 139//325 140//325 138//325
f 139//326 144//326 140//326
f 141//327 123//327 130//327
f 123//328 141//328 133//328
f 141//329 142//329 133//329
f 142//330 137//330 133//330
f 180//331 143//331 137//331
f 137//332 144//332 139//332
f 143//333 144//333 137//333
f 158//334 140//334 145//334
f 146//335 160//335 145//335
f 144//336 146//336 145//336
f 148//337 60//337 120//337
f 150//340 148//340 124//340
f 151//341 124//341 131//341
f 138//348 140//348 135//348
f 140//349 159//349 135//349
f 158//354 159//354 140//354
f 162//355 163//355 85//355
f 129//356 163//356 130//356
f 165//357 164//357 163//357
f 167//358 119//358 169//358
f 93//359 167//359 97//359
f 168//360 166//360 95//360
f 167//361 168//361 97//361
f 167//362 170//362 168//362
f 167//363 169//363 170//363
f 168//364 172//364 162//364
f 168//365 170//365 172//365
f 179//366 177//366 169//366
f 171//367 178//367 170//367
f 163//368 162//368 172//368
f 173//369 176//369 178//369
f 170//370 177//370 171//370
f 174//371 171//371 177//371
f 174//372 173//372 171//372
f 164//373 180//373 141//373
f 184//374 180//374 164//374
f 164//375 181//375 184//375
f 181//376 182//376 184//376
f 184//377 182//377 186//377
f 185//378 143//378 183//378
f 161//379 188//379 186//379
f 210//380 161//380 186//380
f 181//381 189//381 182//381
f 184//382 186//382 185//382
f 182//383 189//383 187//383
f 185//384 146//384 143//384
f 188//385 146//385 185//385
f 192//386 190//386 187//386
f 191//387 190//387 192//387
f 194//388 176//388 195//388
f 196//389 195//389 176//389
f 195//390 199//390 193//390
f 195//391 197//391 199//391
f 165//392 198//392 181//392
f 193//393 198//393 165//393
f 196//394 200//394 197//394
f 199//395 198//395 193//395
f 191//396 201//396 200//396
f 200//397 201//397 197//397
f 201//398 192//398 189//398
f 201//399 191//399 192//399
f 179//406 169//406 119//406
f 188//417 161//417 160//417
f 186//418 211//418 210//418
f 190//419 211//419 186//419
f 191//420 211//420 190//420
f 215//424 211//424 191//424
f 217//196 219//196 218//196
f 222//196 223//196 221//196
f 226//196 227//196 225//196
f 228//196 229//196 217//196
f 221//196 231//196 230//196
f 232//196 222//196 220//196
f 233//196 232//196 230//196
f 233//196 223//196 222//196
f 223//196 233//196 231//196
f 225//196 235//196 234//196
f 236//196 226//196 224//196
f 237//196 236//196 234//196
f 237//196 227//196 226//196
f 227//196 237//196 235//196
f 238//196 228//196 216//196
f 239//196 238//196 218//196
f 239//196 229//196 228//196
f 229//196 239//196 219//196
f 110//426 80//426 107//426
usemtl Material
f 1//43 3//43 49//43
f 3//44 46//44 47//44
f 1//46 49//46 50//46
f 52//48 50//48 49//48
f 51//49 49//49 47//49
f 53//50 51//50 47//50
f 56//51 53//51 55//51
f 55//52 48//52 57//52
f 56//54 55//54 59//54
f 55//57 58//57 59//57
f 59//59 60//59 147//59
f 102//100 52//100 103//100
f 111//101 103//101 104//101
f 74//102 101//102 102//102
f 105//103 74//103 102//103
f 108//104 102//104 103//104
f 102//105 108//105 106//105
f 105//106 102//106 106//106
f 105//107 106//107 107//107
f 62//108 104//108 61//108
f 111//109 62//109 202//109
f 112//110 106//110 109//110
f 115//111 112//111 109//111
f 113//114 111//114 202//114
f 119//116 113//116 118//116
f 149//137 147//137 150//137
f 150//139 151//139 149//139
f 59//140 152//140 62//140
f 147//141 149//141 152//141
f 153//142 152//142 149//142
f 204//143 152//143 153//143
f 149//144 154//144 153//144
f 204//146 153//146 157//146
f 204//147 156//147 203//147
f 204//148 157//148 156//148
f 156//149 157//149 160//149
f 157//150 158//150 160//150
f 62//185 204//185 202//185
f 205//186 202//186 203//186
f 179//187 206//187 208//187
f 179//188 208//188 175//188
f 207//189 205//189 213//189
f 207//190 213//190 208//190
f 209//191 203//191 156//191
f 208//192 213//192 212//192
f 196//193 175//193 208//193
f 196//194 208//194 212//194
f 213//195 215//195 214//195
f 47//231 49//231 3//231
f 55//232 46//232 48//232
f 55//233 47//233 46//233
f 53//234 47//234 55//234
f 52//235 49//235 51//235
f 53//236 52//236 51//236
f 54//237 52//237 53//237
f 57//238 48//238 16//238
f 55//239 57//239 58//239
f 59//241 58//241 60//241
f 61//242 54//242 53//242
f 61//243 53//243 56//243
f 61//244 56//244 59//244
f 102//286 100//286 50//286
f 52//287 102//287 50//287
f 102//288 101//288 100//288
f 104//289 52//289 54//289
f 103//290 52//290 104//290
f 107//291 74//291 105//291
f 108//292 103//292 111//292
f 107//293 106//293 112//293
f 62//294 111//294 104//294
f 112//295 110//295 107//295
f 104//296 54//296 61//296
f 114//297 108//297 111//297
f 109//298 108//298 114//298
f 114//299 117//299 109//299
f 117//300 115//300 109//300
f 111//301 113//301 114//301
f 114//302 113//302 116//302
f 117//303 114//303 116//303
f 202//304 118//304 113//304
f 119//305 116//305 113//305
f 115//307 110//307 112//307
f 147//338 60//338 148//338
f 150//339 147//339 148//339
f 149//342 151//342 154//342
f 62//343 61//343 59//343
f 147//344 152//344 59//344
f 154//345 151//345 135//345
f 154//346 135//346 159//346
f 155//347 154//347 159//347
f 155//350 153//350 154//350
f 157//351 153//351 155//351
f 158//352 157//352 155//352
f 158//353 155//353 159//353
f 204//400 62//400 152//400
f 203//401 202//401 204//401
f 209//402 205//402 203//402
f 119//403 118//403 206//403
f 206//404 118//404 202//404
f 179//405 119//405 206//405
f 206//407 202//407 205//407
f 207//408 206//408 205//408
f 208//409 206//409 207//409
f 213//410 205//410 209//410
f 213//411 209//411 215//411
f 210//412 209//412 156//412
f 209//413 210//413 211//413
f 215//414 209//414 211//414
f 156//415 161//415 210//415
f 161//416 156//416 160//416
f 212//421 213//421 214//421
f 214//422 196//422 212//422
f 214//423 200//423 196//423
f 215//425 200//425 214//425
f 108//427 109//427 106//427
