# Blender 3.3.0 MTL File: 'GrassField.blend'
# www.blender.org

newmtl Material.001
Ns 39.999996
Ka 1.000000 1.000000 1.000000
Kd 0.236479 0.059854 0.021844
Ks 0.100000 0.100000 0.100000
Ke 0.000000 0.000000 0.000000
Ni 1.450000
d 1.000000
illum 2
